(kicad_wks (version 20210606) (generator pl_editor)
  (setup (textsize 1.5 1.5)(linewidth 0.15)(textlinewidth 0.15)
  (left_margin 10)(right_margin 10)(top_margin 10)(bottom_margin 10))
  (rect (name "") (start 110 34) (end 2 2) (comment "rect around the title block")
)
  (rect (name "") (start 0 0 ltcorner) (end 0 0) (repeat 2) (incrx 2) (incry 2))
  (line (name "") (start 50 2 ltcorner) (end 50 0 ltcorner) (repeat 30) (incrx 50))
  (tbtext "1" (name "") (pos 25 1 ltcorner) (font (size 1.3 1.3)) (repeat 100) (incrx 50))
  (line (name "") (start 50 2 lbcorner) (end 50 0 lbcorner) (repeat 30) (incrx 50))
  (tbtext "1" (name "") (pos 25 1 lbcorner) (font (size 1.3 1.3)) (repeat 100) (incrx 50))
  (line (name "") (start 0 50 ltcorner) (end 2 50 ltcorner) (repeat 30) (incry 50))
  (tbtext "A" (name "") (pos 1 25 ltcorner) (font (size 1.3 1.3)) (justify center) (repeat 100) (incry 50))
  (line (name "") (start 0 50 rtcorner) (end 2 50 rtcorner) (repeat 30) (incry 50))
  (tbtext "A" (name "") (pos 1 25 rtcorner) (font (size 1.3 1.3)) (justify center) (repeat 100) (incry 50))
  (tbtext "Date: ${ISSUE_DATE}" (name "") (pos 87 6.9))
  (line (name "") (start 110 5.5) (end 2 5.5))
  (tbtext "${KICAD_VERSION}" (name "") (pos 109 4.1) (comment "Kicad version")
)
  (line (name "") (start 110 8.5) (end 2 8.5))
  (tbtext "Rev: ${REVISION}" (name "") (pos 24 6.9) (font bold))
  (tbtext "Size: ${PAPER}" (name "") (pos 109 6.9) (comment "Paper format name")
)
  (tbtext "Id: ${#}/${##}" (name "") (pos 24 4.1) (comment "Sheet id")
)
  (line (name "") (start 110 12.5) (end 2 12.5))
  (tbtext "Title: ${TITLE}" (name "") (pos 109 10.7) (font (size 2 2) bold italic))
  (tbtext "File: ${FILENAME}" (name "") (pos 109 14.3))
  (line (name "") (start 110 18.5) (end 2 18.5))
  (tbtext "Sheet: ${SHEETNAME}" (name "") (pos 109 17))
  (tbtext "${COMPANY}" (name "") (pos 109 20) (font bold) (comment "Company name")
)
  (tbtext "${COMMENT1}" (name "") (pos 109 23) (comment "Comment 0")
)
  (tbtext "${COMMENT2}" (name "") (pos 109 26) (comment "Comment 1")
)
  (tbtext "${COMMENT3}" (name "") (pos 109 29) (comment "Comment 2")
)
  (tbtext "${COMMENT4}" (name "") (pos 109 32) (comment "Comment 3")
)
  (line (name "") (start 90 8.5) (end 90 5.5))
  (line (name "") (start 26 8.5) (end 26 2))
  (bitmap (name "") (pos 22.489 26.5022) (scale 1)
  (pngdata
    (data "89 50 4E 47 0D 0A 1A 0A 00 00 00 0D 49 48 44 52 00 00 01 B2 00 00 00 80 08 06 00 00 00 6E B6 EC ")
    (data "0E 00 00 00 04 73 42 49 54 08 08 08 08 7C 08 64 88 00 00 00 09 70 48 59 73 00 00 0E 74 00 00 0E ")
    (data "74 01 6B 24 B3 D6 00 00 20 00 49 44 41 54 78 9C ED 9D 77 B8 54 C5 F9 F8 3F 73 76 6F 07 04 51 8A ")
    (data "A2 58 B0 63 E5 A7 10 BB C6 1E 6B 0C C4 12 35 96 D8 82 60 C7 AE 88 05 4B 94 20 C4 12 8D 2D 9A 44 ")
    (data "A2 51 A3 12 35 2A C6 DE 4B 14 0B F6 12 C1 02 52 6E D9 76 E6 F7 C7 BB FB BD 97 CB 99 53 76 CF EE ")
    (data "BD CB 9D CF F3 EC 83 DE 39 33 67 F6 EC 9C 79 67 DE 79 8B D2 5A 63 B1 00 AB 01 7B 06 5C F3 5A FE ")
    (data "53 AD 34 00 27 00 47 00 6B 03 8D 40 1A F8 0E 78 0C B8 1A 78 AF CB 7A 67 B1 2C CB 46 C0 99 C0 2E ")
    (data "C0 4A 40 12 68 01 E6 00 B7 01 37 01 6D 5D D5 B9 EE 82 B2 82 CC 92 67 2F E0 EF 40 C6 50 5E 07 4C ")
    (data "06 2E AA 54 87 62 66 25 E0 65 60 20 22 C0 3A 93 03 52 C0 31 C0 5F 2A D8 2F 8B C5 C4 21 C0 1F 91 ")
    (data "77 2F E1 51 DE 0C CC 03 46 02 DF 57 B0 5F DD 0E A7 AB 3B 60 E9 56 A4 80 3E 86 4F 5D 17 F6 2B 0E ")
    (data "6E 00 56 C5 5B 88 81 4C 14 8D C0 CD C0 A0 4A 75 CA 62 31 30 10 11 62 8D 78 0B 31 80 26 44 93 72 ")
    (data "63 A5 3A D5 5D 49 02 C7 06 5C A3 91 07 5A 2C 03 80 FD 03 AE 99 07 3C 50 C2 3D 2C 16 3F 6A 81 BD ")
    (data "F3 FF 86 E1 00 E0 FA F2 75 C7 62 09 64 BF 90 D7 D5 00 3F 43 16 9A A9 F2 75 A7 7B 93 44 A4 F9 22 ")
    (data "43 B9 02 7A 51 9A 20 5B 0B F8 3D 72 16 E1 45 02 F8 0C 2B C8 2C E5 63 00 90 25 DC AE B2 11 58 B7 ")
    (data "BC DD B1 58 02 19 86 59 7B D0 99 0C 30 18 99 47 7B 24 C9 FC BF 7D 7C AE 89 E3 10 AD 0D E8 EB 53 ")
    (data "6E 55 9C 96 72 52 43 B4 71 5C ED 6A 54 4B F5 13 56 7B 00 32 B6 6B CA D5 91 6A C0 0A 10 4B 4F 20 ")
    (data "8D 68 17 C2 D2 5A AE 8E 58 2C 21 89 A2 26 54 11 AF 5F EE B0 82 CC D2 13 98 87 F9 C0 BC 33 CD 58 ")
    (data "13 7C 4B D7 F3 01 B0 24 E4 B5 49 E0 9B 32 F6 A5 DB 63 05 99 A5 27 90 05 66 10 6E D5 AA 81 FB CA ")
    (data "DB 1D 8B 25 90 FB 09 A7 45 48 01 F7 62 76 9B E9 11 58 41 66 E9 29 9C 04 7C 84 EC B8 BC 48 21 2B ")
    (data "E0 D1 C0 FC 4A 75 CA 62 31 30 1F F1 23 6B 46 16 62 5E 34 23 06 1E 63 2B D4 A7 6E 8B 15 64 96 9E ")
    (data "C2 42 60 0B E0 74 24 3A C9 12 C0 05 7E 04 DE 02 AE 01 D6 07 FE D5 55 1D EC 61 24 80 7E 3E 9F 5E ")
    (data "5D D7 B5 6E C3 83 C0 A6 C0 AD C0 57 B4 EF BA 5A 90 31 7B 76 BE FC C7 2E E9 5D 37 22 19 7C 89 C5 ")
    (data "B2 DC 90 46 1C A3 6F E8 EA 8E F4 50 14 12 1E EC 2C 60 1D CC EA 30 07 98 05 EC 56 99 6E 75 6B 3E ")
    (data "26 D8 D7 B7 C7 63 05 99 C5 62 A9 04 0A 09 FD B5 37 12 91 02 FC DD 1C A2 98 9F 5B 7A 38 56 B5 68 ")
    (data "B1 58 2A C1 11 48 04 8A A6 A0 0B 2D 96 A8 58 41 66 B1 58 2A C1 D9 D8 73 2F 4B 99 E8 49 82 AC 0F ")
    (data "E1 43 BE 74 17 1A 90 83 EF 9E F4 3B 59 CC 34 51 9D 51 47 6A 91 50 75 96 9E 85 42 E6 AF B2 B3 BC ")
    (data "9D 91 29 60 73 60 0F 60 1B 24 97 CF 00 44 20 14 A2 3B 38 88 D9 EA F7 C0 73 C0 93 C8 C1 F2 67 15 ")
    (data "EF 6D 3B 0E D2 DF 5D F3 9F B5 90 B4 23 2E ED 31 02 D3 C0 02 E0 0D A4 BF 0F 20 4E 93 D5 C4 D6 84 ")
    (data "5B 4C B4 22 BF 8D 1F 03 80 4D 4A EE D1 B2 3C 4D BC 3E 39 43 11 C3 06 3F 3E 04 BE E8 F4 B7 5A E0 ")
    (data "E7 C0 18 E4 B9 15 C6 83 93 EF DF 7C E0 3F 88 CF DB A3 98 E3 A5 96 83 35 81 ED 90 B1 BA 19 32 59 ")
    (data "F5 06 EA 91 74 38 6D C0 D7 C8 58 7D 32 FF 6F 86 E5 6F BE 89 CA 4F 88 5F B5 BA 80 F8 73 04 6E 83 ")
    (data "CC 99 26 32 C8 7B D2 99 A1 C0 91 48 4A A8 0D 91 EF DA 86 8C E5 C5 C8 98 B8 0F F8 27 92 52 29 36 ")
    (data "94 0E 4E 48 A6 29 6D 47 30 0A 98 89 7F AC C5 F7 90 2F 5E 2C 03 80 93 81 E3 90 98 63 75 84 3F 2C ")
    (data "5E 82 98 02 BF 0E 5C 01 3C 8C 4C 18 95 A0 1F D2 EF B1 48 BF EB 09 17 33 2D 85 4C 18 5F 21 F9 C1 ")
    (data "FE 4A E9 31 31 F7 02 EE C2 FF 77 9A 48 F1 F9 C8 26 01 A7 62 F6 89 01 F9 FE 1A 39 4B 79 22 A0 BD ")
    (data "9F 23 FD 35 05 A3 2E 86 26 60 65 64 72 88 8B D3 80 4B 31 3B 63 D7 01 E7 20 E6 FF 20 8B AD A3 91 ")
    (data "24 9F 0E 22 20 4C 68 64 82 50 C0 65 48 70 EE 72 85 D7 AA 01 7E 01 9C 07 AC 81 8C 3F BF BE 15 58 ")
    (data "92 AF AB 68 7F 27 D3 F9 FA 7E 63 76 66 FE 7E CB 13 9F 03 FD 91 EF 1E 07 49 60 36 B0 65 4C ED 15 ")
    (data "98 8B BC 0B 5E F3 60 C1 49 BB 63 7C DE 01 88 25 F0 1E C8 98 F5 D3 1A 64 90 77 E1 63 64 DE 7B B6 ")
    (data "D4 CE 42 F5 AF 90 EA 81 0B 81 F1 C8 03 AE 2F A2 8D 82 DE 7E 1B E0 6E 44 A8 8E 46 06 5D B9 70 80 ")
    (data "13 81 CB 11 21 EA B7 FA F1 A2 30 50 D6 45 32 C4 5E 80 F4 F9 9D B8 3A 18 33 97 22 BF 51 D0 6E AC ")
    (data "19 B1 6A 9B 15 B2 DD 14 B0 42 F1 DD F2 6C AF 1C 28 CC 81 B9 3B 0A E2 46 64 A7 3D 8A 70 E7 49 1D ")
    (data "DB 3D 0F 99 18 76 44 1C BF E3 64 07 E0 6F F9 FE 85 11 5E 1D F1 FA 1E 59 64 97 FA BF 12 FB 55 6D ")
    (data "24 88 7F 47 16 36 F4 5A 14 1C FC C7 5F C7 A0 02 5B 03 8F 20 73 58 98 CD 43 4D FE B3 09 E2 B3 79 ")
    (data "27 32 6E 4B 12 EE D5 7C F6 B2 3E A2 92 19 87 3C C4 62 84 58 67 7A 21 AA C9 77 90 15 7F 39 58 11 ")
    (data "D9 96 5F 9E BF 5F 54 21 D6 99 5E C0 7A C0 8B 48 24 80 EE C6 E5 88 10 0B 7A 81 9B 81 3D 09 2F C4 ")
    (data "96 37 6A 11 55 E1 36 14 67 14 D1 84 A4 F2 78 15 D8 2A A6 3E 39 C0 B5 C8 44 35 90 E8 42 CC 8F C9 ")
    (data "58 13 FB 6A 67 5B E0 31 64 31 19 F5 B7 54 C8 98 3D 0C 19 5F 25 9D FD 56 AB 20 DB 1A 78 09 FF 8C ")
    (data "BF C5 92 44 26 92 3B 09 9F DC 2E 2C 83 11 8F FC AD 88 D7 82 AB 30 28 FE 08 1C 1E 63 BB A5 72 25 ")
    (data "12 1A 2A 48 88 2D 41 9C 5F 9F 29 7B 8F BA 2F 37 02 1B 50 DA C2 C6 41 26 95 99 88 8A 34 8E 3E FD ")
    (data "86 F8 DF B1 46 E0 40 44 8D DF A3 D3 8F 54 31 83 91 B3 AE 52 77 98 4D 88 40 BC B6 94 46 AA 51 90 ")
    (data "AD 83 BC A8 7D 28 6F FF 1B 81 3F 23 09 EE E2 60 05 64 D7 34 90 F2 AD 44 1B 91 CC C6 3B 97 A9 FD ")
    (data "28 5C 8D A8 4F FD 06 BA 46 84 D8 2E C0 F3 95 E8 54 37 65 3B C4 A8 23 2E 81 D1 0B B8 A7 C4 36 26 ")
    (data "02 07 13 6E A2 CA 21 61 93 96 20 67 74 61 CE 98 1B 91 05 E9 B4 62 3B 68 E9 52 6E 24 BE F1 DA 88 ")
    (data "F8 19 EE 55 6C 03 D5 76 46 E6 20 F1 C7 C2 EC 66 72 C8 8B A5 90 6D AB 46 74 F3 39 E4 E5 0C F3 DD ")
    (data "1B 80 DB 90 15 43 29 28 24 9A F5 40 A2 AF 40 53 44 DB 76 37 22 93 D8 3A C4 6B B4 10 85 6B 90 B0 ")
    (data "3A 61 84 D8 CE 88 3A AC 27 B3 BF E1 EF 69 DA AD 6D 6B 09 3F 76 6A 81 FF 87 3C DB 27 8B E8 CF 7A ")
    (data "48 4C 4A BF 89 2A 83 BC 4F EF 22 56 93 9F 23 96 93 FD 10 B5 FF 1E C0 90 7C 1B A6 28 EE 8D C0 A1 ")
    (data "C8 F9 5B 31 FD B4 74 0D 0D C0 4F 59 76 41 EE 22 56 8A 05 EB DA 7A C2 6F 36 0A 8B F0 35 28 C2 70 ")
    (data "AD DA 04 D9 AF 11 13 4F BF 87 53 88 16 FD 17 E4 30 F1 3D E0 BB 7C 59 1F C4 40 62 17 DA 2D 1C FD ")
    (data "5E D6 04 62 5E BC 35 A5 ED 18 8E 42 26 96 20 81 E4 22 2B DA 66 E4 AC E8 23 64 72 68 40 82 83 6E ")
    (data "87 0C 9E A0 B3 8A 5E 88 5A EF 37 45 F7 B8 78 AE CD DF 37 48 88 2D 46 0C 13 DE 28 E1 5E 8D 98 A3 ")
    (data "D9 7B E1 50 FA 99 64 DC 38 C8 6F 5E E8 D7 E2 FC BF 8F 21 16 5D 3F 20 E3 70 30 B2 62 1D 81 BC B7 ")
    (data "41 42 AD 09 31 02 2A 46 40 DC 88 FF 58 6D 41 04 D8 21 F8 1B 96 6C 89 08 A9 C1 98 CF B0 9B 90 09 ")
    (data "6C BD E8 DD AC 3A 32 C8 B3 8B 32 51 27 88 E7 FC 3F 4E 0A 42 0A 64 AE CD 00 9F 20 63 F6 7D 24 40 ")
    (data "77 7F 44 55 BE 3F 62 09 1D 66 F3 D1 0F 59 00 CD 8C DA A1 6A 13 64 CF 23 BB 0C 2F 13 4F 8D 4C 08 ")
    (data "93 10 33 E4 36 8F FA 0B 90 95 E3 E3 88 19 F9 CD C8 39 98 DF A4 DB 80 F8 46 14 2B C8 7A 23 3B 94 ")
    (data "A0 1F B2 19 39 3F 1B 8F 79 87 A2 90 B3 A4 1B 90 DD 9D 69 52 AE 43 26 99 89 88 89 7E A5 98 8A 08 ")
    (data "ED 20 21 B6 08 D8 1E 78 BB 84 7B 3D 8A AC FC A3 F0 0F CA E3 7B 56 0A C9 FC 27 87 8C 81 53 81 3B ")
    (data "F0 F6 65 BB 1C 58 1D F8 13 62 D9 E8 F7 9C 15 22 48 56 67 59 1F 35 3F D6 C9 D7 33 59 C3 65 91 DF ")
    (data "6D 7B 43 1F 3B F2 0A B2 10 7C 13 59 69 9B 76 66 AB 20 46 2E 41 BE 83 D5 CE F6 44 D3 C8 AC 89 8C ")
    (data "D9 EE 26 C8 A0 DD 1F F7 59 E4 1C 7C 8E E1 BA 93 10 61 76 1B 32 17 FA 6D 42 7A 03 67 50 26 41 A6 ")
    (data "90 55 44 B1 38 94 EE E3 54 E0 7D 60 63 E0 21 64 42 2A BC C8 1A 71 10 DD 91 F0 26 E8 AD C0 AF 90 ")
    (data "81 B2 07 E6 15 A8 83 08 BB 62 77 37 A7 10 FC 9C 5B 80 AB 10 C1 E3 87 46 26 F0 0D 11 33 ED 6D F1 ")
    (data "16 66 A9 FC B5 9B 50 39 41 36 0D D9 31 FB 4D AE 2E 22 C4 B6 45 56 F4 A5 D0 8C AC 02 A3 D0 5D D3 ")
    (data "C1 6B 44 6B F0 13 82 1D F3 BF 00 76 47 54 D5 BB E2 BF 73 CA 21 A6 F3 77 46 E8 CB 01 F8 4F 36 19 ")
    (data "C4 D2 2C AC D3 F8 22 C4 00 69 26 E6 C5 5C 03 70 10 CB BF 20 FB 32 E2 F5 DD 79 A3 D1 8C F8 DD 4E ")
    (data "0A 71 ED FD C0 48 64 81 1E B4 A0 1F 89 8C BF 48 BE BC 61 F5 97 0D 25 7C EA 88 77 45 31 1F 59 D9 ")
    (data "FC 95 76 B5 52 2B 72 1E 10 D5 8F 4A 03 27 10 FC D0 1A 29 CE E8 23 41 B0 FF 54 33 E2 0B 16 24 C4 ")
    (data "3A D2 0A EC 8B 08 A9 8E 8B 84 6C BE EC 4E 24 3A C8 23 51 3A 5B 24 0A F8 03 E1 84 D8 42 44 4D 5B ")
    (data "AA 10 5B DE 68 03 F6 21 7C 74 99 1C 22 1C 82 9C C1 7B 23 42 2F 0A 07 E3 FF BE 7E 42 74 3F B5 67 ")
    (data "F1 57 01 27 90 C5 A4 A5 3A 70 91 DF 34 8C 10 2B F0 01 70 26 72 2E EE 47 96 22 B4 26 D5 68 B5 08 ")
    (data "F2 65 8F 01 26 20 2F F5 F1 14 AF A6 FA 86 60 63 83 0C A2 A2 89 CA 2E 04 AF AA 16 20 3F 70 54 DA ")
    (data "90 95 71 2B 22 CC 5A 90 33 C1 4D 90 DD E3 B7 45 B4 59 0C D7 21 93 6A 90 10 5B 80 A8 C3 DE AB 44 ")
    (data "A7 AA 8C 77 89 6E F0 B2 00 51 31 06 09 B3 91 11 DB 0D 1A E7 AF 44 6C AF C0 5B 01 E5 AB 61 56 3D ")
    (data "5A BA 17 4B 88 B6 F0 2E 70 6B 88 6B 1C C4 97 37 12 D5 2A C8 0A 4C 47 0E 14 A3 A8 4E BC 78 1C FF ")
    (data "D0 49 0E 72 26 15 95 D1 F8 6F A5 97 00 97 50 7C 6C BF 97 10 75 EB AB 88 5A 75 1F E2 8F EA E0 C7 ")
    (data "95 04 EF C4 72 C8 2E 7A 14 E2 C0 6E 59 1A 4D F1 4E E0 F7 12 1C 92 2A 4A D0 56 BF 08 24 05 E6 45 ")
    (data "68 AF 23 41 0B 2B 07 9B E2 A5 5A 68 A4 38 4B E3 36 BC 63 34 76 A4 0E 89 2B 1A 89 EE AC 83 0D 8B ")
    (data "E9 90 31 0A DF 20 E7 27 A6 E7 51 4B 71 0E A6 3F C3 7F B1 50 83 4C 46 A5 B0 1B 62 D9 56 69 2E 22 ")
    (data "D8 4F 2C 87 F4 6D 14 F0 69 05 FA 54 8D 64 90 F1 57 0C AF 11 3C F9 47 71 BC 5F 01 F9 CD FC E6 85 ")
    (data "62 43 09 05 A9 EF 73 88 4A 33 48 F5 64 E9 7A D2 14 BF F8 9E 85 68 AA 4C 67 BB 35 14 B1 69 A8 F6 ")
    (data "1D 59 5C 34 E3 FF 82 3A 44 F7 FF EA 8B 84 A3 F2 E3 3B 24 0A 7F 29 74 85 10 3B 03 F1 33 F2 9B 44 ")
    (data "B3 C8 F7 DB 0A 2B C4 CA 45 0B FE 9A 04 90 71 1B 76 C1 9A 25 58 BD 57 EC E2 37 E8 FD A9 41 76 EE ")
    (data "96 EE 4F 29 C6 7B DF 10 AC 0E B7 82 AC 1B B1 31 C1 6A 9F AF 2B D1 91 98 19 8B EC C6 82 84 D8 B7 ")
    (data "88 10 2B 67 F0 65 4B B0 1F 9D 26 7C 60 D9 56 82 05 D9 2A 21 DB EA 4C D0 E4 B4 98 CA 65 9D B0 74 ")
    (data "1D 0B 09 FE 9D 23 07 42 0E BB BA 2A 56 2F 0E ED 69 55 2A A9 FF 1E 88 E4 22 5B 03 D1 E7 36 21 BB ")
    (data "23 D3 76 76 5D E2 3F 68 5E 9D E0 85 42 A9 BB B1 4A 73 00 62 BD 19 14 9A 46 21 66 D7 95 32 38 E9 ")
    (data "C9 C4 39 F9 17 52 03 AD E9 73 CD 36 45 B6 1D 74 80 1F C5 D7 CD 52 BD 04 A5 EF 29 8A 30 82 4C 03 ")
    (data "83 4A B8 47 21 1F 59 39 59 19 71 BA 3B 02 71 C0 4C 20 07 8B 09 E4 7C 2B 49 79 D2 1D F8 B1 2A C1 ")
    (data "6E 07 71 E6 D2 AA 04 61 84 18 C8 B3 5E 1D 71 4C 3F BE AC 3D B2 C4 CD 93 88 01 8F E9 7D 19 80 F8 ")
    (data "BB BD 10 A1 CD DD F1 57 2D B6 21 91 78 2C 96 A2 A8 76 D5 E2 30 24 82 F6 17 48 68 A4 6D 90 DD 57 ")
    (data "3D 72 46 D5 1B D9 85 55 5A 88 81 58 7F 2D 6F 91 BD A3 04 09 6D 44 DC 03 4C 71 04 2D DD 93 3B F0 ")
    (data "0F 80 D0 08 CC 20 BC F1 D3 CA 48 54 07 3F A3 13 17 C9 1C 6C B1 14 45 B5 0A 32 07 F8 1D E2 3B B6 ")
    (data "1B 22 B8 BA 9B E9 6E 9C 69 5A AA 95 46 64 62 2C C6 07 CF D2 35 3C 83 7F C2 4B 85 08 A7 D9 48 34 ")
    (data "0E 93 56 C7 41 9C F6 DF C5 DF E8 29 87 98 72 5B D7 0C 4B D1 54 A3 F9 7D 1D 62 B2 BE 23 DD 2F 00 ")
    (data "6C 47 7A C2 C1 75 C1 D0 20 28 56 E5 83 48 D0 E4 20 0B 3B 4B D7 A3 91 64 B5 F7 61 FE 5D 6B 11 5F ")
    (data "9F 9B 10 A7 EC B7 10 A3 9E 6F 11 F3 F9 E1 88 76 A4 86 E0 00 D7 29 BA 26 B8 B5 65 39 A2 1A 05 D9 ")
    (data "BD 48 38 AA EE 2C C4 60 F9 F7 87 69 46 E2 54 0E 42 42 86 99 72 AC 25 11 15 F0 15 C0 69 95 E9 9A ")
    (data "A5 44 1E 43 52 01 1D 84 FF 7B 56 10 52 A3 F2 9F 1C D1 D4 F8 CD 48 A6 68 BB 1B B3 94 44 B5 09 B2 ")
    (data "83 90 20 A8 41 42 AC 0D 59 59 36 03 1F 23 AB C5 16 C4 F4 D3 8B 75 91 40 B6 71 A6 72 9F 4F F4 5C ")
    (data "62 D5 42 33 70 3B 62 8A DF 1F 89 A3 E6 A7 3E 6A 42 8C 3E 1E 43 82 1E 5B BA 3F 27 22 D9 05 36 23 ")
    (data "FC A2 31 AA 10 BB 1D 89 6C 63 B1 94 44 B5 09 B2 4B F1 3F 7B 2A C4 1C 9C 86 E4 54 0A EB 88 7B 30 ")
    (data "C5 9B 15 9B F8 9A 60 41 D6 DD CE F5 C2 D0 8C 58 23 9E 9B FF FF EF 81 5F 22 D1 F8 FD 8C 41 1A 91 ")
    (data "DC 54 1B 50 7C 24 0B 4B E5 68 43 22 30 3C 80 58 29 C6 35 56 0B E9 96 A6 03 67 C5 D4 A6 A5 87 53 ")
    (data "4D C6 1E EB 11 EC 54 D9 8C BC 74 67 D1 F5 D1 24 3E 0E 71 4D E4 98 62 5D 4C 0B 12 2C F4 DC 4E 7F ")
    (data "FF 37 70 0B C1 E9 7E 1A 11 75 64 35 8D BB 9E 4C 0B 62 4C 35 31 FF DF A5 A6 C1 59 8C F8 A9 FD 14 ")
    (data "09 F8 1D BB 3F 91 A5 67 52 4D 13 CA BE F8 9B B3 B7 22 FA F6 FF 56 A6 3B 81 BC 4B B0 4A 66 AD 4A ")
    (data "74 24 26 DA 90 48 F7 57 19 CA 4F 47 F2 2D F9 19 B9 D4 20 86 00 17 C5 DA 33 4B 39 D9 0A 71 90 2E ")
    (data "A8 EB A3 50 C8 3F D7 86 04 B8 3E 3C DF D6 8B 71 76 D0 62 A9 26 D5 E2 BA 98 0D 0A 40 56 8B 4F 54 ")
    (data "A8 2F 61 48 21 BB C2 75 7D AE A9 C9 97 97 7A D8 7D 3A E2 74 5E CE 3C 5F 2E FE BB DC 34 92 80 34 ")
    (data "28 90 6D 13 62 F4 F1 6F E0 3F B1 F5 CE 12 37 43 81 BB 90 33 B2 7A DA CF BF D2 88 F5 E9 BF 90 58 ")
    (data "9A 5B 00 43 90 DF B5 06 59 50 2E 42 54 CE 2F 01 4F 21 D9 D5 AD 3A D9 52 36 AA 69 47 36 34 A0 DC ")
    (data "41 5E A0 62 A8 A5 3C CF E2 3E FC A3 44 27 81 E3 4A BC C7 5A 48 82 BB 57 80 29 74 AD FF DA 07 88 ")
    (data "90 0A 8A FF D7 88 3C 9B 6A 53 AD F6 14 86 23 26 F5 23 11 01 55 10 62 CD C8 02 64 6D E0 40 C4 80 ")
    (data "67 2B 24 FE E2 0A C8 EF DA 1F D9 75 6D 89 18 03 DD 8B 15 62 96 32 53 4D 82 2C 4C 94 8C 62 BF CF ")
    (data "06 44 8B 5A 11 96 7B F0 0F 43 55 07 1C 4B 69 21 C0 6E 42 BE 77 43 BE AD CF 90 3C 68 5D C5 8D 88 ")
    (data "53 6D D0 79 4A 6F E0 EF D8 64 8A DD 8D 5A 24 5A 4E 1F 96 D5 D8 CC 46 54 FC 73 2B DD 29 8B C5 8F ")
    (data "6A 12 64 41 91 E2 5D 8A 8B CC 5D 07 1C 45 79 9E C5 1B 04 BF F4 75 C8 EE A4 18 35 EF 24 C4 7F A7 ")
    (data "A0 72 6D 40 56 C4 B7 02 CF E1 AF D6 2C 27 87 12 EC 47 57 8B 38 49 4F 28 7F 77 2C 11 D8 1B 49 C6 ")
    (data "D9 79 81 91 06 FE 4A F1 F9 C8 2C 96 B2 51 4D 82 EC 13 FC 5F A2 DE 48 6C BF 28 28 64 07 51 4E 33 ")
    (data "F8 89 F8 4F EA 35 C0 A6 48 C2 B9 BE 21 DB AC 05 AE 07 4E C1 BB EF 4D 88 80 7B 85 E0 C0 C5 E5 60 ")
    (data "3E B2 2B 0C B2 62 6C 02 CE 47 54 58 96 EE C1 1E 78 FB 53 D6 22 67 A0 D5 74 AE 6E E9 21 54 D3 A0 ")
    (data "7C 12 09 9D B3 82 A1 3C 01 FC 1C 71 B8 FD 73 88 F6 06 01 7F 04 76 22 9C 5A 71 08 30 A2 D3 DF DE ")
    (data "21 58 85 76 37 E2 F4 E9 77 76 D5 98 6F FB 73 E0 32 E0 4E BC E3 DD 35 22 67 13 97 23 42 CF 4F 00 ")
    (data "A7 80 3F 20 16 63 5D C1 53 C0 0D C8 39 8A DF F3 6D 40 7C 95 D6 07 7E 8C D0 FE AA C0 D6 11 FB 14 ")
    (data "94 E8 14 64 B2 0E 3A E3 EB C8 FD 14 9F 2D B7 3B E2 A7 D5 18 81 68 46 1E 03 5E 46 CE A4 83 16 2B ")
    (data "20 63 70 31 ED 46 20 5F D1 33 42 B8 75 66 77 44 65 1B 96 C1 21 AE E9 47 B4 A3 84 0F 90 18 B5 CB ")
    (data "15 D5 24 C8 9E 23 F8 9C AC 11 D9 61 1D 05 4C 45 52 4D 74 CC A5 B6 0A F2 32 1E 0A EC 83 7C 7F 3F ")
    (data "4B C8 02 C9 7C 9B 47 75 BA D7 86 C0 9C 80 BA 39 C4 EC F8 11 FC 27 F4 FA FC E7 7C C4 3C FD 07 C4 ")
    (data "9C FD BB 7C 1F 87 20 A1 9E D2 84 8B 40 92 42 04 5E 57 72 16 B2 C2 5F 0F 73 D4 07 85 08 E5 BB 81 ")
    (data "BD 22 B4 3D 12 89 0C 11 45 50 07 8D 77 0D 5C 13 A1 BD 3E 88 70 5C 9E 04 D9 27 3E 65 4D F9 CF AF ")
    (data "80 5F 20 DF 5B 13 AC 6E 74 68 37 DD 2F 64 AC 9E 83 9C A5 FE 19 B1 6A EC 09 DC 84 8C F5 28 EA D9 ")
    (data "A0 39 AF 3F 32 E7 85 A1 1E D1 E4 2C 77 A1 E2 AA 49 90 65 90 15 FE 09 F8 FB 67 35 22 01 85 47 20 ")
    (data "02 A0 06 99 D4 1B 90 49 AF 20 08 3A AA 55 97 20 3B A0 B5 F0 7E 26 0E CB AE A4 16 47 E8 FB D3 C8 ")
    (data "20 FE 0D C1 6A CC 42 F9 AA F9 4F 67 C2 84 BC 6A 41 A2 95 14 6B C5 19 17 19 24 8D CB 1B F8 7F EF ")
    (data "3A 24 5E E3 49 88 AF 5A 58 D2 C8 8A 34 2E 0A 8B 89 28 F7 5F DE 78 13 D9 91 06 8D D3 A8 CF AA 33 ")
    (data "C3 11 23 AB 5F 21 E3 74 22 70 33 CB B7 93 74 82 68 3B B2 30 44 0D AB B7 5C 1A 57 55 D3 19 19 C0 ")
    (data "C5 84 5B FD 2A 64 C0 14 FC 5F 1A F3 7F 6B 40 54 93 9D BF F7 F7 C0 31 94 57 0D 77 3A B2 43 0C A3 ")
    (data "8A 29 85 42 08 A9 7F 95 F9 3E 61 99 03 8C 27 58 5D D7 84 38 B4 6F 56 F6 1E 59 FC B8 8F CA A9 FD ")
    (data "12 C8 44 BC 2A B2 13 7E 15 C9 EA 6E B1 44 A2 DA 04 D9 42 64 A7 11 A7 30 68 41 54 8D CF 20 61 A5 ")
    (data "CA B5 22 CC 01 3F 03 9E 25 DA 19 4C 14 9A 91 73 BF 73 CA D4 7E B1 DC 82 9C 99 05 9D 27 36 00 FF ")
    (data "C4 E6 72 EB 4A 7E 44 76 49 E5 1A A3 26 7A 21 46 4F 2F 11 EC 33 6A B1 2C 45 B5 09 32 90 B3 A6 71 ")
    (data "C4 23 CC 5A 10 DF AB 82 8E FE 10 44 CD 58 2E 61 96 06 F6 44 82 1A B7 C4 78 9F 42 B0 E4 33 10 4B ")
    (data "C6 EE C8 E1 04 AB 3A 15 ED EE 03 96 AE E3 41 E4 0C 79 1E 95 15 68 09 E4 CC F1 59 96 CF AC 11 96 ")
    (data "32 51 8D 82 0C 64 85 BF 3B 62 08 51 8C 40 6B 43 26 D5 03 90 30 3C 05 66 23 B9 CE E6 51 BE 7C 62 ")
    (data "2E 62 04 B1 43 FE 7E A5 DC A7 90 AA E6 25 24 58 F2 F5 25 F7 AE 7C 2C 40 0C 04 82 7E AF 06 44 D8 ")
    (data "1F 15 70 9D A5 BC BC 8E A8 7A 2B 3D 47 24 91 73 4F EB 5F 68 09 4D 98 41 1A C7 AE 21 C8 3F AA B5 ")
    (data "88 36 9F 45 42 E5 5C 84 9C 71 2D C2 5F 75 55 08 60 DA 8C 58 F9 AC 89 98 11 77 A6 A0 A7 3F 05 F1 ")
    (data "ED FA 01 EF 73 B9 52 73 97 BD 8A 1C 78 1F 08 3C 8E 08 D7 85 04 5B 34 65 F3 D7 B5 21 11 18 F6 45 ")
    (data "84 58 A9 26 B5 EF E3 BF 0A 8E 23 F2 C9 7F 90 DD 68 10 4D F9 EB 36 08 B8 CE E4 8A 51 29 C2 58 BC ")
    (data "06 5D 17 B6 0D 13 41 EA DA 28 39 C2 40 C6 C0 C5 88 F1 D3 A5 2C 6D 58 A5 91 77 28 EA A7 60 64 15 ")
    (data "96 26 E0 4C C2 45 F3 A9 26 BA CA 15 A6 23 61 2C 26 83 7E AB 52 33 BD 07 C9 83 C8 46 54 4A EB E5 ")
    (data "C2 48 28 81 C4 7C DB 01 D9 51 0D 46 1E 56 2D 62 5D 38 0F 31 B4 78 1A 11 5E A5 A6 A3 28 07 BD 91 ")
    (data "E4 9E DB 21 06 0F 6B 21 E7 06 B5 B4 07 62 9D 8B 08 F0 57 11 A1 10 C5 72 D2 62 09 62 45 C4 5F 73 ")
    (data "1D 96 5D B8 34 03 5F 20 86 44 C5 4C 1A FD 91 48 33 DB 20 AE 24 B5 F8 0B D9 85 C8 0E FE DF 45 DC ")
    (data "CB D2 C3 58 5E 04 99 C5 62 29 8D 04 B2 48 DA 82 65 77 89 29 C4 8F 73 77 4A 5F 8D 83 F8 5F CE 40 ")
    (data "FC 22 4D 3B 52 17 F1 83 3C 2F 86 FB 59 96 73 AA F5 8C CC 62 B1 C4 CB 68 44 D5 ED 25 58 5C 24 FC ")
    (data "5B 1C 42 0C E4 6C 78 27 FC CD FC 1D 44 FD 6F B1 04 62 05 99 C5 62 01 39 13 36 B9 3D FC 0F EF 90 ")
    (data "69 A5 F0 2D 72 2E EB 47 50 46 78 8B 05 B0 82 CC 62 B1 08 7E 8E E8 E5 3A 8B 0D 32 44 A9 B4 2F 9B ")
    (data "A5 4A B1 82 CC 62 B1 F4 C2 3F 74 D1 3A 94 6E 5D D9 99 BE C8 19 99 09 97 E0 38 A6 16 0B 60 05 99 ")
    (data "C5 62 11 63 0E BF B9 40 23 26 F9 71 91 40 02 3E FB B1 04 F1 8F B4 58 02 B1 82 CC 62 B1 64 F0 57 ")
    (data "E3 F5 02 C6 22 81 08 56 2A F1 5E 3B 02 AF 01 3F C5 3F F8 77 0D 92 92 C9 62 09 C4 9A DF 5B 2C 16 ")
    (data "90 D0 6F 7B E0 AF 62 2C 38 F4 BE 8E 04 0B F8 98 E0 F3 B3 3E C0 6A C8 19 DC F6 88 80 6A 0A B8 4F ")
    (data "0A 49 EF 72 4C 50 A7 2D 16 B0 82 CC 62 B1 08 7B 02 F7 10 3E 60 B3 8B 84 1B CB 61 36 A3 4F 20 5A ")
    (data "9F 06 A2 45 18 59 80 9C CB FD 10 A1 8E A5 07 63 05 99 C5 62 01 D9 21 3D 82 A8 FE 4A C9 33 56 0A ")
    (data "85 E0 D7 BB 00 2F 76 51 1F 2C 55 88 15 64 16 8B A5 C0 0A 88 81 C5 6A C4 13 5B 33 0A 6D C8 39 DD ")
    (data "9E C0 2B 15 BE B7 A5 CA B1 C6 1E 16 8B A5 C0 42 24 27 D8 5F 90 9D 51 5C 91 3C FC 68 CD 7F FE 82 ")
    (data "98 E3 5B 21 66 89 8C DD 91 59 2C 16 2F 36 42 D2 0D FD 02 31 BE E8 45 F4 48 FA 26 0A B9 F8 DA 80 ")
    (data "E9 48 A6 83 EF 62 6A DB D2 03 B1 82 CC 62 B1 F8 D1 0B C9 CA B0 2B B0 1B B0 3A A2 76 6C 45 0C 3D ")
    (data "0A D6 87 05 C3 8E 42 9A 90 C2 BF 0A 49 0D A3 90 EC 0D B3 91 C4 9D 4F 02 1F 96 BF FB 96 9E 80 15 ")
    (data "64 16 8B 25 2A 0D 48 CE BE C1 88 61 48 53 FE 6F F5 88 05 E3 42 24 A7 54 33 62 9E FF 09 76 C7 65 ")
    (data "29 23 56 90 59 2C 16 8B A5 AA 49 76 75 07 2C 96 88 AC 00 6C 19 73 9B AD 48 BE AD B8 49 20 E9 4A ")
    (data "E2 E6 49 FC 53 A0 F4 04 46 52 7A 96 F6 CE CC 26 FE 28 FF DD 8A 5D 1F FA EE 48 A5 18 E0 55 A6 D1 ")
    (data "8B 1E FF D9 80 EB 8D 95 67 6F 76 14 8A 95 3D CB 34 3F B2 E1 9B 37 FA DC FA 68 CC 51 61 16 00 37 ")
    (data "F9 D4 A5 6D DE E6 BF 71 B4 5E D1 AB CC 55 6A BE 15 64 96 6A 63 03 E0 61 E2 4B 1B EF 20 71 FD 06 ")
    (data "C7 D4 5E 47 1A 91 30 4B 4B 62 6C B3 37 A2 CA 6B 8D B1 CD 6A E4 4E 60 15 DA CF E2 4A A5 0E 38 1E ")
    (data "B8 2D A6 F6 BA 1D 7B 3C FC CD 76 09 A5 6F C1 10 55 45 2B 7D AA A9 EE 92 B7 37 DD 59 6B 7D 8B A9 ")
    (data "5C 2B 3D BE 8F F1 CE D9 5D D0 DC 6C 2C 56 FA 24 09 F8 E2 4D EA DB CD 77 55 70 93 56 DE C1 60 94 ")
    (data "52 27 5A 41 66 A9 46 5A 90 E8 E9 71 51 4E A1 90 45 C2 34 C5 D9 9E 45 76 BB 4D 31 B6 17 E7 62 A3 ")
    (data "DB B1 D3 2C 92 8D 3A 3D 4D 99 42 83 29 66 CF 1D F8 FD 34 58 75 D9 B2 59 3B 25 17 37 E5 A6 68 8C ")
    (data "C7 50 EF 7E E3 34 5C 3F C2 BB AC 56 BB D9 EB 7C BA F6 8E 52 F5 37 18 4B 67 0F AF 65 A5 1A 73 7D ")
    (data "CD 1B 75 03 87 DD 94 44 5E B2 AD 7C 6E 14 95 0C F0 7D 87 4F 5C 2B 26 8B C5 62 B1 14 C1 0A 8B 3F ")
    (data "3A 49 2B B5 89 A9 5C BB 9C F4 EA 88 11 19 AF B2 F7 93 73 C7 93 D6 1B 1B 1B D7 6A EC 88 6D 5F F5 ")
    (data "AC 8B BB F8 64 B4 5A DF 58 53 33 16 C7 BC 38 4B F7 AF 39 0D CD 7A A6 FA 5A AB 93 E1 9E 5C 12 89 ")
    (data "69 16 A7 AA C6 45 D4 35 49 64 BF F8 39 12 FA E6 2E E0 E5 98 EE 61 B1 58 2C 96 10 EC F7 E0 3B 03 ")
    (data "93 AA E6 02 F3 86 8A BF DD BB CF 7A 4F 7A 15 BC F4 C4 5A 03 1D 27 71 BE 4F F3 77 6F B9 D3 9C 59 ")
    (data "DE 45 DF 0D D2 6E CD B9 A6 8A 5A 73 97 AA E9 FB B4 A9 BC F5 EB 4D 87 38 49 E7 1C 53 B9 52 DC 51 ")
    (data "37 F8 F5 FF 40 BB B1 47 2B 72 88 5E 0E 86 01 27 02 47 01 5F 03 E3 B1 E9 19 2C 16 8B A5 22 D4 A3 ")
    (data "AE D4 64 4D AA F8 96 5C C2 99 60 AA DB 9C E3 6A B2 39 93 6C 58 4C 26 73 A6 A9 AE 9B 51 D7 28 B2 ")
    (data "26 B5 FA 62 27 C3 04 9F A3 31 54 D2 F9 1D E6 20 D6 8B B2 4E E2 EC 42 B6 D7 4A 9D 91 25 F3 1D 5A ")
    (data "0F B8 17 78 02 38 0C 58 54 A1 FB 5B 2C 16 4B 8F E3 E0 07 DE DC 3A A1 38 CC B8 1B D3 7A D2 3D FB ")
    (data "6C FE B9 57 D1 7D 0F 0E DD C6 51 1C 6A 6A 5B 2B 35 E9 80 BD BF FC DA B3 30 FB CD B6 68 75 90 71 ")
    (data "13 A8 99 A8 1A 07 19 2D 44 DB BE D9 74 3B E5 38 A3 4D E5 C0 85 8D 2B BD FA 4D E1 7F BA C2 D8 A3 ")
    (data "09 89 10 F0 06 12 31 E0 1B FF CB 2D 96 65 E8 45 B4 45 50 2D 5D 17 D1 BD 86 68 7D 4D 52 F9 80 BD ")
    (data "D5 48 C1 E1 3A EC 19 BC 22 7E 73 FD 6E CD C4 89 38 C9 CD B3 53 30 E7 7E FB A8 5F 6D DF 6B BD 0A ")
    (data "66 CC 50 89 94 B3 EA 34 6D B2 70 84 39 0B 1B 1B A6 1A DA 4D B8 B9 DC 34 F3 7D D5 7B 4E DD DC A9 ")
    (data "30 C8 50 7D A7 64 8A 86 E9 B8 CB D6 CF FF 61 76 9F C1 D9 E9 1D FF DE 55 56 8B F5 48 84 ED 67 80 ")
    (data "CD 09 4E CE 67 B1 14 78 03 8C 87 BF 26 DE 29 47 47 42 D0 8C A8 D6 A3 F0 30 60 3A 1C B7 B4 B3 0B ")
    (data "62 32 1F 96 33 10 F3 FA 1E C3 67 9B BD 74 7C 52 6B 1F 9F 4B 35 7E EA 9E C3 52 5E 25 DF 65 06 9D ")
    (data "80 CA 6D E6 53 77 DC 49 07 CE F1 AC EB A6 3E 1B 8B 66 53 53 4D 57 71 8A 83 B7 61 09 C0 B7 5F EA ")
    (data "71 5A D5 6D 6C 92 BE AE 52 63 FB 30 6B A9 FA 5D 69 7E 5F 83 D8 7A FE 09 F0 DB 42 5A 2C 1D 49 21 ")
    (data "21 8F A2 D0 55 E1 6B 5C A2 F7 35 5D 8E 8E 2C 87 78 AB B4 CC 2C 28 4B 2F BA 29 C7 CC 78 61 C5 44 ")
    (data "6D F6 62 53 B9 42 FF E3 8F FB 6D FF 88 57 D9 E5 77 0C E9 AF B4 7B 91 B9 2E 7F 9F 70 C4 BC 7F 79 ")
    (data "16 2E F9 78 00 09 6D AC 0B DC 93 AC 1F 66 B4 91 F8 F4 D3 5D 06 26 12 B5 06 C3 14 8D D6 FC 65 E8 ")
    (data "D0 C7 9F EA 5C 12 56 90 65 09 B7 85 4F 44 68 13 64 67 B6 27 92 02 FD 3F 11 EA 59 2C 16 8B C5 40 ")
    (data "B2 B6 6D B2 D6 F4 37 14 B7 BA 89 C4 69 A6 BA CD A9 D4 15 1A 6D AE 9B CB 9D 61 AA 9B 73 32 57 A0 ")
    (data "8D 3E 9E 2D 09 47 1B 8D 43 00 32 34 5C 95 C9 75 34 3C D4 1D FF AB A5 46 3B 67 79 D5 0B 2B 74 D2 ")
    (data "C0 29 01 D7 28 C4 49 75 10 F0 13 60 93 7C 2F 82 F4 FD 8D C0 24 60 87 90 7D B1 58 2C 16 8B 81 13 ")
    (data "EF 7F 6C 44 02 75 B4 F9 0A 75 C5 F4 7D 76 FA D4 AB 64 FC F5 7D 47 68 57 1D E9 D3 FC 65 53 7F BB ")
    (data "E0 33 AF 82 4C CB BB 5B 3A 5A 1F 6E BC AB E2 52 EA 87 7B 1A 96 00 BC F3 F1 E8 AD 5D EA 7E 25 FF ")
    (data "B7 EC 96 4C 29 7D F1 7A 6B DD F7 85 57 DD 28 82 CC 37 16 96 07 2B 02 13 11 B3 7B 3F 61 A6 80 FF ")
    (data "07 6C 0C FC 37 E2 3D 2C 16 8B C5 92 67 E2 C4 89 4E 72 93 AD A6 61 4A 9A AC F8 22 95 CC 5D E5 5D ")
    (data "57 39 8B FA F4 9E AE CD 75 3F 56 0B 17 5F 6D B8 B5 E3 E8 EC 34 B4 29 59 B3 FE D8 69 EA 7B 8D A9 ")
    (data "DF 33 18 93 18 9A AB 99 4E 27 03 91 C2 FF 68 F4 47 2B 3A 0B A7 98 EA 97 F3 8C 6C 3E 70 12 F0 31 ")
    (data "B2 E3 32 F9 03 80 58 95 1D 84 15 64 16 8B C5 52 34 0B 37 DD E2 C8 A4 CE 8C 32 95 2B 97 93 A6 EE ")
    (data "BD 6F 8B 57 D9 5B F5 8D 47 AB 74 6E A4 A9 AE 76 38 F9 BE 0B B5 67 E0 8C CC 92 D7 8E 55 DA 1C 21 ")
    (data "4A 69 C6 C3 1A C6 A0 1B 03 DF 6B 3C 3E A5 94 D1 B8 C4 71 DC 71 C3 86 3D E2 69 5C 02 95 31 F6 98 ")
    (data "02 1C 87 BF 25 56 12 D8 0B 30 7A 81 5B 2C 16 8B C5 CC D9 0F 3F DC 2F E1 66 2E 37 5E A0 D4 63 57 ")
    (data "FD FC 80 07 BD 8A F6 9E AC FA A5 33 75 97 FA 34 FF CF C7 CE 6F 7B C8 B3 64 D1 0B 2B 2A 9C 49 3E ")
    (data "75 1F 48 F4 19 F9 B0 A9 F0 89 F7 C7 F6 77 DD FA 89 3E F5 EF DB 75 FD 1B 66 FA 94 57 CC 6A F1 7A ")
    (data "60 32 92 7C CF C4 86 88 F1 47 5C A1 B2 2C 16 8B A5 E7 90 5A 72 71 12 E5 9D 66 05 D2 6E 56 8D 33 ")
    (data "55 FD 7E 49 E2 12 54 CE B3 AE 86 14 B9 C4 E9 A6 BA 39 ED 5E 06 AE 29 45 4B 2A A7 72 67 F8 09 9A ")
    (data "96 6C 62 32 3A 61 34 2E 41 BB C6 7B 17 A8 94 20 7B 19 31 9B F6 13 64 6D C0 50 E0 83 12 EF 35 00 ")
    (data "71 B8 1E 81 04 43 1E 42 7B 06 5B 8D F8 F6 2C 44 CC 77 9F 02 9E 07 5E 24 FE E8 D7 7D 91 73 C2 38 ")
    (data "F8 1F C1 02 5E 01 FD 31 47 5A FF 9E D2 22 A9 F4 46 7C 77 B6 CC 7F 86 21 CF B5 10 81 BC 39 DF FE ")
    (data "77 C0 D3 48 7E AF 17 F2 F7 B5 2C 5F 28 E4 DD DA 11 31 D2 5A 17 19 7B B5 F9 B2 14 F2 BB CF 41 A2 ")
    (data "F8 CC 02 5E EB 82 7E F6 18 CE FD C7 9D C3 13 DA 31 FB C9 29 75 F5 E5 A3 0F F1 9C 5B 37 38 4B 6D ")
    (data "EC 68 75 AC A9 AA 46 5D 39 FB 8A CC 87 5E 65 99 85 CF 6C A1 B4 7B 8C B9 67 7A 72 DD 0A 3B CE 31 ")
    (data "95 CE 78 FD F4 11 38 75 47 99 AB 33 79 F4 E6 57 7A 1A A6 74 A4 52 82 EC 7B C4 34 DF 0F 17 49 BC ")
    (data "56 8C 20 AB 03 8E 40 E2 38 AE 85 44 E0 EF 85 B7 67 79 13 22 EC D6 01 B6 41 52 82 D4 22 A1 B3 7E ")
    (data "07 BC 59 C4 FD BD 38 16 39 1B 34 3A FE 85 A4 0E 99 2C 9E F7 28 DB 08 F8 0D E2 C2 30 0C 99 40 72 ")
    (data "2C FB BD 6B 81 93 81 3F 44 BC B7 03 EC 0B 9C 09 6C 91 6F BF 17 DE 87 C1 8D C0 CA C0 DA C8 24 77 ")
    (data "7C BE EF B3 80 2B F3 FF DA 74 E4 D5 4D 7F C4 7A F9 38 E4 B7 AD C5 DB 29 B9 01 59 C8 0D 43 12 8B ")
    (data "66 91 A0 07 D7 01 D3 B0 01 10 62 45 81 BA 48 E7 A6 69 5C D3 7C FE 95 CA 35 7A AA 1C 95 52 6A 9D ")
    (data "53 13 D3 72 68 53 DD 2F 1B 1C F7 0A E3 AD 73 E9 69 DA 3C B7 7F 51 93 F1 36 2C 01 98 C8 44 67 2D ")
    (data "89 E0 E1 E4 BF 47 27 F4 27 D9 45 35 57 9A EA 77 A4 52 82 2C 8D 39 4C 4A 81 C2 8E 22 0A 0A 79 A9 ")
    (data "26 23 0F B3 60 50 12 36 1C 51 0D ED C1 92 0F 06 0E 00 1E 43 2C 2D 7F 8C D8 17 53 FF 4A CD 99 E4 ")
    (data "D5 8F B5 81 5B 91 5D 67 1D ED 03 C9 B4 E3 2D 26 DF D6 9E 88 A5 EA 0A B4 87 F6 09 1B 49 C1 A1 FD ")
    (data "B9 EE 8E 2C 18 3E 40 1C DF 3F 2B A2 2F 96 AE A5 06 38 1B 38 0B 19 D3 51 C2 7D 15 AE ED 05 9C 97 ")
    (data "6F 67 02 70 23 36 CB 75 2C 5C 7C EF CD 87 A2 95 D1 7D 49 C3 A9 17 8C 1E ED A9 71 5A 7B 7C CD 61 ")
    (data "6E 8E ED 8D 75 95 3A F9 AD DF A5 9A BD CA 32 F3 1F FD 35 9A 9F 98 EF AB C6 33 70 37 CF BA 00 43 ")
    (data "5E 76 8E 4A A9 3A A3 71 89 42 9D 7C F4 8E E7 86 3A 6A EA 4E 89 35 1D A2 C5 42 1B 04 3C 84 84 2B ")
    (data "F2 B3 88 0C 4B 21 51 DF 5E 88 4A 64 7F 44 3D D6 DD 38 02 98 8E 4C 10 41 BB DC 62 68 04 FE 8C A8 ")
    (data "67 E3 48 5C 58 88 71 B7 39 62 95 7A 1C 70 77 0C ED 5A 2A C3 1A 48 B6 8A 55 F1 3F 1A 08 43 C1 0D ")
    (data "E7 4A E0 57 C0 7E 58 D5 73 49 5C F9 E0 9F 7A 27 B4 7B 85 49 D9 A1 E0 C9 B3 7F 71 DC 0C AF B2 F5 ")
    (data "27 A8 DE AE 5B 3F D9 A7 F9 7F 7F 32 B5 F5 3E CF 92 F9 33 FB 68 D7 BD D4 B8 3B D1 3C 5E BB F2 CF ")
    (data "EE 37 15 5F FF EC E4 7E B9 DA FA CB 7C 96 32 8F 8D 1D 79 C6 3F 7D FA B6 14 95 14 64 41 3B 32 97 ")
    (data "F0 BB A0 0D 10 55 55 3F FC 72 64 17 47 5D 4F 6D E7 69 00 00 16 B8 49 44 41 54 FE F3 28 B2 9B E8 ")
    (data "4E C2 EC 64 E0 52 CA 17 54 76 65 E4 B9 AE 49 E9 93 56 67 0A 3B E6 3F 22 E7 7D DE 2F 88 A5 3B B1 ")
    (data "05 F0 24 F2 BB C5 B9 68 EA 85 F8 8E BE 05 8C 02 BE 8C B1 ED 9E 45 5B EB 85 49 A5 57 31 94 66 B5 ")
    (data "CC 19 9E A4 96 34 4D 04 06 7B 16 2A D2 28 E7 24 53 DD 4C 2E 3D 09 18 6C 88 24 95 D6 8E 32 D6 05 ")
    (data "68 51 8D 93 74 16 A3 61 8A E3 66 7D EB 77 A6 52 82 AC 17 C1 21 AE 34 F0 43 88 B6 06 21 93 ED CA ")
    (data "04 0B C7 52 68 42 76 7C 1B D2 3D 22 F4 EF 46 79 85 58 03 32 69 AD 43 FC 8B 83 8E 34 02 77 02 F3 ")
    (data "E8 5E 8B 04 CB D2 6C 84 BC 67 A6 B3 E6 52 A9 45 CE AA 5F 04 36 C5 EE CC 22 33 E5 6F 53 36 48 38 ")
    (data "18 2D 11 D1 EA F7 A7 8D 19 EF E9 9B 3B F4 F8 DE 1B 82 33 D6 5C 97 29 9F DF B8 E8 7D AF A2 F4 DC ")
    (data "7B 37 C2 E1 04 9F BA D7 D4 AD 74 A0 D1 D6 E1 B2 E7 6F 18 EE EA BA E3 96 DD 44 6A 14 A0 E1 AA F3 ")
    (data "B6 1D E7 69 5C 62 A2 52 82 6C 30 C1 FA F0 04 E1 06 F3 3F 90 9D 58 98 97 AB 15 31 50 50 F9 8F 4B ")
    (data "7B 6E B4 30 34 22 E7 44 FB 84 BC BE 5C F4 01 FE 42 79 D3 7B 4C 47 CE DE C2 08 B1 34 62 24 03 A2 ")
    (data "12 2E 64 05 EF 4D B8 DF A5 11 F8 6B FE 7E 36 48 6E F7 A3 1F F0 38 E1 85 D8 12 64 0C 14 D4 DD 29 ")
    (data "C4 C0 C3 64 41 5B 20 89 18 78 3D 8C 84 B5 B3 67 66 11 50 2A 7B 6D 52 9B DE 57 3D AF 4D B9 46 DF ")
    (data "2E D7 4D 5E 87 E9 5D D7 7A 6E 7D 43 C2 E8 53 A6 54 76 9A 36 DD 57 A9 AF 6A 1D 65 AE 0B EA BC 6C ")
    (data "FD 34 AD 49 B6 0F AC A5 24 DA 97 6D A9 A4 D9 17 CE 40 A5 04 D9 76 04 9F B7 24 81 20 33 CB 03 90 ")
    (data "18 8E 7E 93 6D E1 70 F0 19 E0 01 E0 5D 44 65 99 41 5E D0 75 91 73 B0 BD 90 97 AE D6 A3 8D 02 B5 ")
    (data "C0 CE F9 7B BE 1D D0 37 2F 0A D6 5A 7E A8 7C BF FC 38 97 68 29 2B A2 B2 29 62 EC E2 77 88 9F 43 ")
    (data "84 CE 6C E0 1E C4 BA F3 07 44 A0 F5 45 CE 52 76 46 22 B4 38 04 0B DD BE C0 AF 89 1E FA CC 52 7E ")
    (data "6E 40 5C 47 FC 84 58 0E 11 58 CF 03 77 21 E9 75 E6 23 63 62 05 C4 C0 E7 D7 88 D5 62 3D A6 B0 47 ")
    (data "F2 8E 6D 84 A8 C0 8C 21 8C 2C 4B 33 FD 9E CB C6 24 50 BB 9B AF D0 A7 4F 18 7D CE 42 AF 92 55 8F ")
    (data "59 F9 20 74 62 67 73 55 75 EA 9C A9 DF 79 BA EA A4 BF B9 FB 50 94 DE D1 A7 6B A7 33 E0 50 A3 2B ")
    (data "D3 19 4F DD 7D 58 1B 75 3B 98 CE F4 B4 D2 A7 5E BD DB A1 46 03 11 13 4A 6B 3D 02 F1 F5 30 A5 B3 ")
    (data "06 11 04 41 93 AD 89 5A C4 67 CB E4 30 57 E0 39 24 D1 A6 1F 5B 03 8F 60 D6 D9 B7 20 6A AB 0B 80 ")
    (data "6F 03 DA 1A 08 FC 0D D1 D5 FB 09 D9 1C B2 5B 19 1F D0 5E 67 86 22 6A BA 20 C6 03 7B FB 94 FF 88 ")
    (data "FC 36 A6 49 25 85 08 69 BF 49 27 09 9C 8A D9 FC 7E 5D 64 0C AC 8C B7 C0 6C 06 5E 01 4E 04 DE F3 ")
    (data "B9 0F 88 00 9B 8A 08 B4 A0 C5 CB 3B 48 8C CD 72 D3 8C BF 60 FD 0E 51 73 75 07 DE 42 16 4E 26 0A ")
    (data "3B 9D 62 2C 51 C3 B0 03 B2 43 F2 FB ED 5A 80 F7 81 C3 91 85 A2 1F 9B 02 0F 22 EF 9B DF 62 AC 19 ")
    (data "59 0C 95 4B C5 78 19 62 31 69 62 09 12 52 EF B6 32 DD 3F 36 6E 7A 68 62 A3 DB EC CC 46 E6 18 2F ")
    (data "9E 3B FE 97 E7 6F 87 87 B4 58 F5 B8 55 1B 75 5B 76 36 CA 58 F7 D9 6F 6E FF 76 7B AD F5 B2 92 E6 ")
    (data "FB 3F F5 4E 65 12 EF 21 86 3F 5E 3C 53 37 F8 88 1D BC EE 0B 30 E1 B9 07 7B B7 B4 A6 DF 07 E5 79 ")
    (data "A6 A7 E0 89 A9 BB 1C B8 8B A1 6D 5F CA BD 23 73 80 9B 09 36 1C 48 21 E7 51 41 3C 8F BC 18 4F 20 ")
    (data "0F B3 E3 0E 62 31 62 69 F8 64 C8 BE CD 43 1C 7C 9F 46 1C 7C 4D BB BC 04 F0 73 A2 0B B2 CF F3 9F ")
    (data "20 0E 0C 28 2F 44 3B 29 3C C3 25 48 5F DF 45 CE 17 3E CC FF 2D C8 D9 F9 75 9F B2 0F 11 81 F2 0F ")
    (data "E4 59 74 9C C4 5A 80 0B 11 1F BB 30 B4 00 C7 20 83 F9 60 FC 27 C4 75 90 05 8E 3D 1F E9 3E 4C C1 ")
    (data "5F E8 B7 00 33 81 43 08 A7 16 7E 0B D8 0C 71 8E 1F 86 D9 68 24 81 98 E7 1B 8D 13 2C 79 5A F4 B9 ")
    (data "09 B2 26 41 94 C3 71 C6 62 10 26 B9 56 7D 3E 24 86 1A 36 44 39 AD 9D B1 9E 42 0C 48 A5 DD F3 41 ")
    (data "9B 84 58 56 B9 DA 78 5F 80 1F 96 38 17 29 55 6F 34 4C 71 1C 27 28 C3 8A 91 72 09 32 85 AC EC AE ")
    (data "44 8C 25 82 56 E6 2E 62 F2 1D 86 CF 91 17 E3 5E 44 7D D1 84 BC 5C 7B 13 3D A7 59 16 59 55 FE 17 ")
    (data "7F 75 65 7F 64 F5 13 46 30 C5 4D 41 58 A7 91 55 F8 05 C0 ED 48 74 92 38 F9 11 F8 29 70 15 62 22 ")
    (data "DF 84 AC 92 2F 27 BC 10 EB C8 C9 C0 2F 03 AE 49 01 BB 22 E7 7F 96 AE 67 24 22 6C 4C BB FB 2C B2 ")
    (data "E8 39 98 68 8E FE 0B 10 55 FE DB 98 E7 82 7A 64 01 74 36 E5 DB 6D 56 3D B7 FF ED FC B5 6B 74 EE ")
    (data "54 9F 4B AE 3F 72 F4 65 9E 41 1D 06 1C B6 DA 30 DC 84 9F B0 98 F6 ED 5D 5F BE E5 55 90 FA EA C6 ")
    (data "75 50 3E 86 25 A8 EB 6A 87 1C 6B 3C 7E F9 D5 CC 27 36 54 D4 2D 65 89 A8 96 FA 6F 3D E5 F6 DD 76 ")
    (data "2B 3A 68 7C 58 41 D6 84 A8 1B 82 A8 47 56 D8 EB E2 1F 5D A3 23 59 44 F5 F0 55 C8 BE 80 EC 40 F6 ")
    (data "04 AE 00 4E 47 D2 C5 14 9B 98 F3 63 44 C5 E5 93 12 9C 14 62 92 DE 15 82 0C 44 88 BD 87 4C FA DF ")
    (data "95 F1 3E 2E 70 1A A2 46 BC 1D 78 16 51 C9 14 43 33 F0 77 E4 9C C4 34 06 9A 10 83 0F 4B F7 60 2C ")
    (data "FE DA 93 34 A2 32 2E 26 5A CD 27 48 CC D5 B1 98 CF 62 73 88 61 D5 3D 45 B4 DF 23 70 74 FA F7 0A ")
    (data "6D 7A 7E 3F 90 4E 5E 64 AA 9B CB 24 7E AF 4C EA 5D CD B7 B9 B4 32 D6 85 EC 54 B4 A1 AE 62 5E 5D ")
    (data "26 63 CC 46 0D 90 76 6B AE C1 BC 59 98 4B 5D FA 12 BF FA 41 84 15 64 35 C8 8A 2A 0A 61 BD FF D3 ")
    (data "C0 45 11 DB 06 99 74 CF 40 84 E0 B3 45 D4 EF C8 BF 10 9F 19 93 DA C3 A1 6B CF 50 5A 29 BF 10 EB ")
    (data "C8 5F 11 C1 F9 19 A5 85 95 7A 12 F8 05 66 47 F7 04 B0 7A 09 ED 5B E2 C3 41 1C 94 4D EF 80 46 2C ")
    (data "19 4B 89 85 7A 0D 22 C8 4C F4 41 76 F1 56 90 79 70 F7 DD A7 EE E7 28 7E 66 2A 57 9A 09 87 1C 7E ")
    (data "A5 A7 0B D3 4A 63 D6 38 00 9C BD 4C 2F B3 42 4F 58 F0 8F 4F 3D FD 78 5B BF 98 F2 0B A5 D4 1E C6 ")
    (data "8E B9 9C C9 1A 27 1B 7D 80 F7 79 E0 C5 5F 2A 55 67 34 4C D1 E8 D3 FF B9 CB F6 25 69 98 BA 3A B2 ")
    (data "47 33 32 B8 3D FD 15 42 F2 4C 0C FD F8 1A D9 75 99 CE 06 0A 3E 2F 5D 41 1A 89 4F 57 29 21 56 C0 ")
    (data "53 C5 10 91 6F 08 F6 1F 5C 2D 86 FB 58 4A 67 04 FE 8B 96 C5 88 75 62 29 7C 83 9C 4D 9B CE 77 40 ")
    (data "AC 1C 2D 9D 98 39 73 5C 5D 42 61 8C 5B 08 BC F6 FE 9C FE B7 7A 15 AC 36 66 B5 86 5C AE DE E7 78 ")
    (data "40 BD F2 E3 26 73 EE F0 2C FA EA DA 06 85 7B 95 CF C8 78 BE 7E F5 D3 EE 34 15 EE FB D0 6B 8D 29 ")
    (data "5D 7F 85 B1 BE E2 B9 C7 F7 DB AC E4 48 3F 5D 29 C8 5A 90 9D D4 45 5D D8 87 02 8B F0 9F 70 1D CA ")
    (data "6B FE EE 47 0B 72 50 5E 8D 2C 22 58 B5 DC 55 CF D5 B2 34 A3 F0 3F 27 AE A1 78 F5 7D 47 5E C3 5F ")
    (data "90 35 20 41 0F E6 C6 70 AF E5 86 E6 05 99 B3 12 66 2B 68 57 39 EE 6F 2F BC F0 42 4F 3F BC 45 99 ")
    (data "5E 13 D0 7A 4D 53 5D 94 1E AB 2F D4 9E 75 DB 72 E9 73 10 6B 52 CF BA AE A3 4F C6 67 01 F4 63 5B ")
    (data "C3 79 28 65 34 4C D1 8E FB 5B 1D 43 30 F1 AE 12 64 CD B4 AB 9D BA 8B 13 64 77 8E CC BE A0 AB 3B ")
    (data "50 02 DD F9 B9 5A DA D9 16 FF F3 B1 5A E2 D1 0A 7C 1D 50 DE 86 C4 4F B5 82 2C CF 43 77 1E B7 7A ")
    (data "32 E1 9E 61 2A 57 4A DF B2 DF 41 37 BF E4 55 D6 B8 EF F0 D5 13 38 C6 BA 28 6E 5A 7C FF BB 2F 7B ")
    (data "15 A5 BE BC 64 6D AD 95 39 17 98 E6 86 C6 A1 E7 BE 62 2A DE 7A C6 EC 61 CA 75 FD 0C 53 FE F0 DC ")
    (data "2F 87 C7 A1 F9 A9 B8 20 4B 23 C6 1D E7 23 66 BE E5 9A E4 12 48 3A 97 A1 88 0F 56 63 FE D3 D7 70 ")
    (data "FD A6 65 EA C7 F2 C8 EA C8 B3 2D 3C D7 DE F9 8F D7 58 1A 52 C1 7E 59 4A 63 BD 10 D7 84 0E E2 EA ")
    (data "C3 3A C8 7B 6F DA A9 27 F0 DF B1 F5 38 74 22 FD FB 84 36 5A 7B 2E 48 D6 A8 73 4D 75 13 59 E7 3A ")
    (data "AD 8C 47 26 F3 9D 44 ED F9 A6 BA 6E 36 37 05 B3 AD C3 FC 6C 86 0B 4D 75 01 DC B6 D4 EF E9 AC 71 ")
    (data "51 FF F7 CF B7 49 27 E9 5B 3F 0A 95 10 64 39 C4 CA B0 16 B8 03 B8 18 49 14 19 27 B5 88 E9 F8 21 ")
    (data "88 49 FE 10 DA 73 73 69 E4 7B 26 F0 57 73 F9 45 F8 E8 A9 38 48 E8 A0 5F 22 B1 1E 87 22 3B E8 82 ")
    (data "FF 50 32 7F 8D 29 6A 03 94 37 6E A3 25 3E BC 83 C7 B6 93 20 BA C1 57 31 D4 12 5F 42 DA AA E7 91 ")
    (data "3F 1F B6 6B 52 E9 FD 4D E5 0A CE DB 63 F4 9F 3D 77 CA F5 BB 6D B6 9B E3 24 F6 35 D6 55 FA 9C 45 ")
    (data "0F BF EA E9 C3 D9 F2 E9 79 FB 28 AD 8C 81 1A B4 E2 AC DE EB 4E 32 FA 7F 8E BC E5 E5 FD B5 D2 7B ")
    (data "99 A6 5C AD F5 D9 2F 1C BD 79 6C 9A A6 B0 82 2C 43 F0 A1 7D C7 36 73 C8 F9 C8 3C 24 8A FC 4C C4 ")
    (data "99 39 6E FF 90 15 91 E4 95 BF CE F7 B1 0F ED 4F CE 4E A0 C5 D3 80 44 02 39 03 79 9E 8D 2C 3D 56 ")
    (data "CA 19 F3 D1 D2 35 C4 91 0A 29 0E 92 D8 F1 05 C0 8C 19 63 6A 57 C0 B9 CE 47 6F F5 DF DA 21 F3 3C ")
    (data "43 BC A9 31 C3 6B EB 74 FD 54 D7 74 70 A3 79 3D D5 6F AD 9B 3D CB 3E 1A 57 A7 54 D3 D5 3E 5D 7B ")
    (data "AD 71 AD FA 5B 4C 85 5B 5F FB 42 43 AE 31 77 CD D2 DD 56 FF 37 31 2B 78 F5 D5 B9 DB DC E6 D3 7E ")
    (data "64 C2 0A B2 16 C4 8F 2A 0C AD B4 C7 3B 2C 27 27 21 3E 4E 49 A2 25 FA B3 F8 B3 1F ED D1 58 E2 C8 ")
    (data "47 66 A9 0E BA CB C2 CF A1 FB F4 A5 4B E9 9F 76 4F 05 D7 A4 F2 D5 38 7A EC 8E 3B 3E 95 F5 2A 4C ")
    (data "CE 6F 38 DD D5 CA 58 57 2B 35 56 DF 73 8F E7 E6 A4 45 D7 9D 09 D9 75 0D 75 5D 85 3B 16 2E 37 DA ")
    (data "36 B4 D6 B4 4E 20 A3 0C F2 C2 71 B5 CE FD 56 5F 18 AF 6D 44 58 41 A6 E9 3E 06 07 0E 62 8E 7E 38 ")
    (data "76 A2 8D 9B 72 E7 3B B3 58 2C 21 98 75 D7 81 43 12 6E CE 78 F6 05 DC B9 C3 21 F7 7B 5A 91 AA 9D ")
    (data "46 0D 49 EA E4 D9 A6 8D 9C 86 DB B2 B3 5E F0 B4 84 6E FD F8 B4 D5 C0 9D 60 DC 05 6A 75 6B C3 BA ")
    (data "D7 BC 68 EA D4 F0 A9 FF 5E DD C9 BA 67 A0 BC 95 8A 0A 6E 7E F3 94 DD 3C 8D 4B 4A A1 AB FD C8 8A ")
    (data "E1 06 E4 2C CC 0A B1 78 39 05 51 D3 5A 21 D6 33 C9 D0 3D 76 42 E5 CC 31 58 35 24 DC B6 AB 95 59 ")
    (data "DD BB 58 AB DC 59 A6 BA 8E 9B BC C6 D5 C6 BA 8B 5C 1C A3 80 D4 B9 CC 14 4C 73 AB 62 81 EB F8 06 ")
    (data "5E 86 D6 D4 54 D7 3C 87 2C C8 24 B5 9F 70 2E 9A 6A 13 64 BB 11 4E 88 65 69 8F 78 FE 2D E2 88 D9 ")
    (data "82 39 C8 E9 20 44 75 DA 53 85 E3 7A C0 25 84 13 62 8B 10 55 EE 12 24 AC D8 12 DA 73 93 79 51 54 ")
    (data "34 6B 4B C5 69 C5 FF F7 4F 81 BF 95 5A 8C 94 1A A9 A7 AA 79 F9 CF 7B 6C 57 A3 F5 18 E3 05 9A 0B ")
    (data "47 1D F1 A8 67 B2 5F B5 CD 0E 3B 43 62 B4 B9 75 75 BE 7E 6E 96 67 DD E6 39 27 EE A2 34 3F 37 D6 ")
    (data "74 F5 05 BD D6 BF DE E8 82 B1 E1 C5 FF D8 15 47 ED 67 BE 37 E7 7E 30 61 FF B2 04 08 AF 36 41 76 ")
    (data "35 C1 C2 A6 05 89 0B 39 0D 71 24 0E 13 17 EE 60 64 A7 D7 53 B9 94 60 C7 E4 66 E0 0B 64 D7 F6 18 ")
    (data "E1 B2 79 2B C4 F0 C7 AE B2 BB 3F 73 91 E0 D8 7E 5C 51 89 8E F4 64 66 CD DA 29 D9 CB 75 A6 19 34 ")
    (data "73 A0 99 ED A4 16 4E F3 2A 52 3B ED 94 AC D3 D9 29 3E CD BF 9B 4A A7 AE F7 2C 99 3D A6 16 A7 EF ")
    (data "75 66 BB 12 F5 4E E3 DC 55 6E 60 7D EF D2 E1 13 67 D4 E6 5C AE F3 31 09 7C E3 C3 F7 CA 97 7B B0 ")
    (data "9A 04 D9 50 24 32 B7 1F 2D 48 D0 D1 B0 A9 5C 2C B2 BB DA 13 73 8C 3D 10 21 76 3B 62 60 D3 5D 1C ")
    (data "D8 2D F1 F2 11 92 E0 D2 44 82 F6 94 42 96 32 D1 E7 F3 DC 49 8A 9C 31 1F 9D 76 D5 49 5B 1C FB AA ")
    (data "E7 E2 BC 77 6B F3 78 50 C6 FC 7E 5A 39 63 DB 5E F5 AE DB AC 7A 9D 8C CE 1A C4 14 5A 2B C6 B2 E3 ")
    (data "85 9E 86 25 00 A9 B6 F4 69 28 B3 71 89 72 39 59 DF 73 48 58 CB F7 C8 54 93 20 F3 DB B2 82 A8 3E ")
    (data "A6 63 85 58 54 76 26 78 D7 BA 10 18 87 15 62 CB 33 CF 02 7B 60 DE 99 B7 22 59 2D 8A C9 94 6E 09 ")
    (data "C1 3B 37 8F 1A 98 AC 71 2E 30 5E A0 D5 DF 36 39 F2 39 CF F9 6D E0 A8 51 03 EB B4 6B 74 6E 06 EE ")
    (data "FE EE C5 97 66 79 15 34 CF 3E 72 10 F8 19 96 E8 BB 7A 6D 70 E7 D3 A6 D2 75 26 DC 35 24 97 CB 9E ")
    (data "B3 D4 1F 97 DA 4F EA 3B 3E B9 EA D7 71 84 37 33 52 4D 82 6C 03 FC 43 E8 B4 22 91 F0 2D D1 58 8B ")
    (data "60 B5 E2 C3 84 F7 23 B4 54 27 2F 21 BB 2D D3 58 A8 01 76 27 3E 41 36 14 39 BB 0E 93 9C B3 47 A0 ")
    (data "12 B9 2B 93 DA 35 45 1F 6A 51 B9 EC 04 53 DD 1A B7 ED 6A 2D D1 76 BC 58 EC 24 39 D3 54 57 EB D4 ")
    (data "35 88 0F AE A1 AE 36 DE 17 20 DB D6 FA 3B 6D 34 4C D1 8B 70 B4 BF 81 48 0C 54 93 20 5B 23 A0 DC ")
    (data "01 E6 17 D9 76 21 42 45 4F 64 08 C1 82 CC F3 70 38 04 35 F8 87 23 B2 74 1F 5E C4 3F BA 4D 3D 92 ")
    (data "82 E5 77 94 BE 33 77 90 70 57 CD C8 2E 30 EE 24 B1 55 C7 FB B7 6E BE 75 52 71 98 A9 5C A1 26 AD ")
    (data "7B F4 EB 9E F9 10 87 6D 39 7C 9B 5A CD A1 C6 C6 B5 9A F4 C9 CB FF F5 8C 71 B9 78 F6 98 6D 95 E6 ")
    (data "20 F3 7D F5 C4 C6 F5 66 18 23 31 AD 7E E2 F5 DB 69 30 1A 97 68 B8 F0 AB 3F 9C 50 EC FC 11 9A 6A ")
    (data "9A BC C3 58 D4 15 3B 61 AE 8D FF 6E 6F 79 A6 37 C1 CF AD D8 71 B2 26 FE 16 8D 96 EE 43 06 89 C2 ")
    (data "E3 17 FF 74 45 C4 7F B3 54 CE 47 C6 C6 E6 48 34 FC 55 63 68 B3 7A 99 A8 9C 1A B2 53 92 3A AB 92 ")
    (data "3A 8B C7 E7 23 67 F1 E2 6B BD AA AA 31 2A 91 D4 D9 69 75 3A AB EA 74 16 8F CF 9C C4 A2 B6 A9 9E ")
    (data "F7 9D 31 26 A1 72 D9 69 E8 AC 42 67 F1 F8 BC D7 94 5A D1 BB 2E A0 26 4E 4C E6 32 99 E9 6E 26 AD ")
    (data "DC 4C 86 65 3E D9 CC EC 41 B9 C4 F4 98 9E 92 2F D5 B4 23 0B 8A CF E8 22 39 C3 DE 8D D8 AE 03 1C ")
    (data "85 BF B1 C3 F2 CC 97 88 BB 82 DF 58 28 36 67 D8 61 01 ED 5A BA 17 D7 21 31 4B 4D 89 50 7B 21 D6 ")
    (data "C0 AF 01 C5 A6 A5 3F 0A 38 93 F6 85 E9 50 E0 4D 24 0F D9 3B 45 B6 59 D5 7C 3E 74 83 E3 13 3A 6B ")
    (data "CC 50 AF 94 1A 3F F4 A4 39 29 AF B2 8D 3F 5E FB 04 A5 B3 9B 19 1B 57 8C 7B 6F CE 47 9E 75 9B D7 ")
    (data "4B 8D 45 6B 63 C0 74 A5 DD 53 18 71 A3 F1 FC 7C C0 27 4D E3 72 2A DD C9 B8 A4 7D 4D AC B4 1A FB ")
    (data "EA ED C7 16 93 4D 3C 32 D5 34 C9 7C 86 08 2B D3 EE A0 09 F8 39 F0 54 C4 76 27 D1 B3 83 94 CE 45 ")
    (data "CE 46 FC 62 ED ED 81 8C 15 A3 D5 92 07 5B 20 4E D6 36 7C 58 F5 F0 14 32 1E 4C 82 0C 44 00 3D 03 ")
    (data "1C 40 B4 77 AD 16 B8 1C 38 9E A5 B5 2B 49 C4 EC FF 05 60 DF 88 6D 56 3D 5F DD 32 7C 45 47 65 26 ")
    (data "FA 5C 72 FF 6A 47 CE 79 C4 AB 60 E4 C8 21 FD EB B3 35 17 99 F5 29 EA DE 97 DF FC E4 5F 5E 25 4B ")
    (data "DE DE 7D 80 D6 89 8B 8C 77 55 6A 46 AF 4D 1F 7E D4 54 3C F0 90 CB 06 6A D4 05 9E DB 77 E9 CF 5F ")
    (data "BF BD EB EC 8A FD 96 D5 24 C8 9E 06 4E C0 7C A0 59 83 AC F6 EE 07 9E 08 D1 5E 23 70 25 12 70 38 ")
    (data "8C 23 F4 8A 88 61 44 47 BE C4 6C F1 37 88 70 2A 93 30 99 A7 D7 43 AC 32 A3 B0 08 98 13 E2 BA 67 ")
    (data "08 56 1D F6 42 7C F8 4E 0E 79 EF 5F 00 B7 12 4E 5D DB C0 B2 CF 75 3E 60 4A 9D DE 04 26 6F 16 23 ")
    (data "41 DF 2F 89 64 48 8E C2 87 48 D6 64 3F 12 80 79 B5 EC 4D 18 15 FA E6 44 1B 0F 9F 10 2E C4 9C 46 ")
    (data "82 45 FF 05 F3 C2 46 21 EF E0 C3 F9 CF F9 F8 67 78 6F 02 C6 20 0B C6 BE 78 7F 3F 95 BF DF C3 88 ")
    (data "FB 4C 98 F7 77 03 43 5B 26 82 A2 FB 83 9C C3 47 19 07 0B 90 67 5B 34 09 B5 64 32 B0 92 A1 B8 D5 ")
    (data "71 31 E6 F3 AA 6D 53 57 40 B6 BF 41 19 DC 9A 74 92 C6 5C 62 DA D5 57 40 D6 D3 B0 44 41 4B D6 CD ")
    (data "99 73 98 01 99 74 F6 2A A5 8C 73 71 8B 56 FE 06 22 71 A3 B4 D6 23 90 81 63 EA 14 C8 A4 D2 AF 32 ")
    (data "5D 32 52 8F 0C 9C A0 15 7E 2B F2 22 FE 01 51 59 74 B4 B6 AB 01 86 23 13 ED 09 88 91 43 98 97 21 ")
    (data "87 1C 4C 77 A4 09 79 99 4C C2 E2 4C 24 65 4D D0 84 A3 F0 5F 01 A7 42 B4 D1 99 24 F0 3A B0 5D C8 ")
    (data "EB BF 24 38 77 58 33 A2 4E 9A 84 AC 9A 3B 67 32 58 13 D8 15 31 D3 1F 4A FB 44 98 23 D8 47 AD E3 ")
    (data "6F 54 87 44 19 B9 C4 70 FD 28 24 53 71 94 4C 0A B5 F8 8F 9B 56 C2 39 CE 17 28 F8 DE 05 B9 7A F4 ")
    (data "46 DE 9D 25 11 DA 0E 8A FE 1E 75 3C D4 01 BF 02 FE 1E A1 CE A3 88 AA 2F 28 64 55 16 B1 3A 5C 84 ")
    (data "2C 34 3F 42 32 5E 34 20 8B B8 51 C0 26 C8 B3 F5 1B E3 05 16 20 26 FE 61 A2 3F 7C 90 BF 47 58 6B ")
    (data "DA A0 F7 2C 4B B4 F3 DC 1A E4 F7 37 A6 3A 09 E2 FB 9B 57 19 E1 2A E7 65 4C 0B 2D A5 2F 1A 70 D4 ")
    (data "D7 9E BB B5 9D 37 59 65 84 42 9B EB A2 CE 7F E2 ED FF 79 BE 43 8B DE DC 65 4B E5 BA 2F 9A EB 72 ")
    (data "6E EF 2D 9E BC CC D4 EF FE FB 9F B7 B5 8B 7A 16 C3 D9 BA 86 B3 7E BC 7F 52 45 9D E7 AB 69 47 D6 ")
    (data "06 FC 15 09 51 E5 67 5D D5 80 1C 48 8F A6 5D F8 B5 20 83 B8 0F 32 69 D5 B1 B4 A5 5E 33 62 39 35 ")
    (data "08 EF 1F 37 C1 B2 E6 A9 41 AB 71 F2 6D 99 CC 5A C3 D2 B9 AF 61 89 F2 DB 5E 0B 4C C4 5F BD D8 04 ")
    (data "8C 04 EE CE FF F7 42 64 82 6E 40 16 41 59 64 45 DF B1 8D 1C F2 9C 6A 30 EF 7A 3B FF 3D 8C 45 5C ")
    (data "33 E6 24 A9 C5 D0 40 34 63 1F D3 6E D1 8B 2C A5 8F 81 8E 44 1D 0F 8B 8A B8 C7 E1 C8 79 55 7F FC ")
    (data "0D 81 92 B4 0B DE 5F E6 FF 96 62 D9 08 F6 61 D4 CB 2D C8 99 6A D8 10 46 49 E2 0D 29 97 24 FA EF ")
    (data "54 FC FC 39 51 39 CE 90 81 D3 1C 5C 93 30 F9 22 95 4D 5C E5 5D 55 39 F5 1B AD 34 1D B3 20 FA B8 ")
    (data "B5 B9 97 21 0D 8B 72 C8 6D 37 4D FB D4 ED B3 38 71 8D A9 DB 6A CC 98 44 9F CC 5A D3 B5 69 5C 28 ")
    (data "3E 5A EC B6 F8 45 17 29 0B D5 64 B5 08 70 36 E1 56 CE 49 44 70 D5 20 AA BB 35 90 97 B2 06 19 AC ")
    (data "9D 27 82 16 E0 58 96 DD 75 F5 14 A6 11 6E C2 2B A8 95 0A E7 1A 43 91 E7 5B 87 4C 2A 9D 05 61 0A ")
    (data "38 90 9E 6B 48 53 AD CC 43 76 9C C5 BC 0F 75 44 0F 3E DC 0C 9C 8B A8 16 7B 04 0B 57 5D F1 C8 84 ")
    (data "CE 8C 4A E8 0C 5E 1F C7 CD 9D 34 F8 D8 AF 3D 77 88 6F 6D B4 C2 D1 75 3A 3B D2 60 A5 48 BD CA 9D ")
    (data "FC D4 A7 9F 7A 46 60 59 F8 DA A8 63 D1 D9 AD 0C 56 8A 40 6E 3C 3B 3E 65 8C DE D2 EB C7 D5 8E CF ")
    (data "A5 33 9B B9 69 0F 2B C5 4C 86 5C 26 3B 4E 3F 32 35 AA 06 A9 64 AA 4D 90 CD 45 7C 59 E2 14 38 CD ")
    (data "C0 91 48 F2 CF B2 04 B4 AC 02 D2 C8 0E 36 EE E7 3A 19 51 BF 3C 45 34 43 11 4B D7 F3 2A 12 A4 7B ")
    (data "31 E5 8D E8 D2 02 9C 07 54 7C 15 DF 55 2C BC BE 6F BF 24 D9 CB 93 64 F1 FC E8 EC 63 7D 7F F3 9D ")
    (data "67 70 87 43 37 E9 DB AF 26 E7 5E 5A EB E6 30 7C FE 79 DF 7F E7 3F E4 55 77 D1 0B 5B AF A8 DC DC ")
    (data "24 A3 10 73 73 0F F4 19 F1 9C 71 31 D1 67 97 B1 FD B3 E9 CC C4 5C 26 43 2E 93 21 97 5E FA 93 4D ")
    (data "67 EE 6B 7E F4 EA 99 71 3D A7 28 54 93 6A B1 C0 6D C0 EA C8 19 54 A9 AA 85 66 E4 CC A7 F0 E3 1D ")
    (data "0A FC 9B 9E 99 CA E4 79 E4 2C E5 2E 44 CD 56 8A 13 73 33 E2 F0 5A D0 D1 1F 8F 9C 57 F6 2D B1 5D ")
    (data "4B 65 79 01 B1 3E 9D 89 18 4B C4 A9 CA 6B 43 D4 FC 07 23 67 72 3D 86 DA 64 E6 62 A5 59 D9 50 9C ")
    (data "56 89 C4 38 53 5D 27 9D BE A4 0E 63 DD 94 52 AE D1 C0 43 25 DA 2E D3 DA 68 58 92 42 6B 5F 03 8F ")
    (data "74 6B 6E B2 26 67 0A 2C DD EA 24 B3 C6 7B 97 9B 6A DB 91 15 B8 18 B1 50 5C 4C 71 21 6E 0A 07 BB ")
    (data "E3 58 3A A2 F7 0B 88 21 C8 62 7A 66 70 D4 FB 91 43 FE B9 44 33 A6 28 A0 91 E7 3A 0D 59 14 14 EC ")
    (data "A9 BE 00 76 44 22 84 F4 54 F5 6D B5 52 08 26 7C 05 F2 DB 16 33 2E 3A 92 42 DE AD BF 21 D6 AA 3D ")
    (data "4A 88 A5 6F A9 1B 5E 43 F6 78 9F DD D8 D5 75 47 2D FA C0 AB EE 91 1B D4 6D 5C A7 B3 C7 D6 EA 2C ")
    (data "5E 9F 1A 37 77 E5 ED EF B5 7D E8 55 77 E1 8B 9B 6E E1 EA EC 31 5A 67 F1 FA B8 6E 6E 72 9F 91 6F ")
    (data "18 AD 9C 6B 47 FD 66 44 36 93 39 EA FF 76 63 9D 3E D9 4C 66 72 EB D3 7F FC 34 AE E7 14 95 C2 8E ")
    (data "AC 37 66 4B 28 45 34 8B AE 4A 71 0F F0 1C 70 0E 62 42 9F 25 38 4A 45 0B 22 BC 1F 47 CC 8C 3F F2 ")
    (data "B8 66 26 12 E9 63 3C 70 10 62 8D E7 F5 FD FD 0C 23 0A 38 44 B7 38 8C 83 52 EE FB 32 62 39 36 0E ")
    (data "38 0D 39 DF EA 85 FF 39 57 0A 51 3F BD 9D AF E7 95 01 F6 6D 60 1D E0 68 E0 18 60 C3 7C 9D CE C6 ")
    (data "C3 61 B4 04 7D E8 9A E7 DA F1 FE 61 A9 A1 6B FB 1A C7 2E 2A 8D 68 2E A6 23 BF EF 71 B4 8F 89 30 ")
    (data "46 32 69 E4 19 64 80 3B 10 57 0E CF 90 49 11 FB 94 C6 3F 12 49 39 49 50 C4 BC 98 CC 66 8F 51 4A ")
    (data "BF E5 59 A8 58 AC 1A B4 D1 5A B0 31 93 3D 06 53 5D 58 94 6D D1 93 4D 75 B5 CE 1C A5 44 2B E2 55 ")
    (data "B8 70 09 4B AE F0 B3 9E CA A5 D2 47 6B 78 C3 50 BC 40 F7 75 AE F4 A9 5E 76 94 D6 DA CB 22 AF 33 ")
    (data "2E DD 3B 1E DA 0A 88 3E 7F 57 60 7B C4 2F A3 17 32 29 B6 22 7E 49 6F 20 6A C3 19 C8 61 76 14 4C ")
    (data "AE 07 0B 31 9F 1F D4 D3 B5 61 AF 32 44 33 FB F6 A2 06 89 8E BF 13 12 30 76 10 32 56 1A 90 E7 BA ")
    (data "08 89 A4 F2 14 B2 C2 F6 5A 18 F8 D1 07 6F 01 D9 8A 79 47 5C 30 E4 E9 6A 16 13 7C EE A7 88 D7 BA ")
    (data "B2 58 9A 89 3F 38 EF 66 C8 BB B6 2B B2 40 19 4C BB 45 65 6B FE B3 00 78 0B 89 E3 F8 24 E2 12 12 ")
    (data "97 E0 31 8D 9D 4A 92 C6 6A 18 BA 05 FF 1F 75 39 4F A6 79 54 91 F5 00 00 00 00 49 45 4E 44 AE 42 ")
    (data "60 82 ")
    )
  )
)
