(kicad_sch
	(version 20231120)
	(generator "eeschema")
	(generator_version "8.0")
	(uuid "baecefa6-fc3b-4552-ad2a-37ff533a09fe")
	(paper "A4")
	(title_block
		(title "HiP Berlin Hardware Badge")
		(date "2025-01-10")
		(rev "0.8.19")
		(company "HiP Berlin, Badge Team")
		(comment 1 "Copyright © 2025, HiP Berlin")
		(comment 2 "Serving event conference visitors")
		(comment 3 "Pending quality assurance testing")
		(comment 4 "Warning, untested prototype!")
	)
	(lib_symbols
		(symbol "Connector:Conn_ARM_JTAG_SWD_10"
			(pin_names
				(offset 1.016)
			)
			(exclude_from_sim no)
			(in_bom yes)
			(on_board yes)
			(property "Reference" "J"
				(at -2.54 16.51 0)
				(effects
					(font
						(size 1.27 1.27)
					)
					(justify right)
				)
			)
			(property "Value" "Conn_ARM_JTAG_SWD_10"
				(at -2.54 13.97 0)
				(effects
					(font
						(size 1.27 1.27)
					)
					(justify right bottom)
				)
			)
			(property "Footprint" ""
				(at 0 0 0)
				(effects
					(font
						(size 1.27 1.27)
					)
					(hide yes)
				)
			)
			(property "Datasheet" "http://infocenter.arm.com/help/topic/com.arm.doc.ddi0314h/DDI0314H_coresight_components_trm.pdf"
				(at -8.89 -31.75 90)
				(effects
					(font
						(size 1.27 1.27)
					)
					(hide yes)
				)
			)
			(property "Description" "Cortex Debug Connector, standard ARM Cortex-M SWD and JTAG interface"
				(at 0 0 0)
				(effects
					(font
						(size 1.27 1.27)
					)
					(hide yes)
				)
			)
			(property "ki_keywords" "Cortex Debug Connector ARM SWD JTAG"
				(at 0 0 0)
				(effects
					(font
						(size 1.27 1.27)
					)
					(hide yes)
				)
			)
			(property "ki_fp_filters" "PinHeader?2x05?P1.27mm*"
				(at 0 0 0)
				(effects
					(font
						(size 1.27 1.27)
					)
					(hide yes)
				)
			)
			(symbol "Conn_ARM_JTAG_SWD_10_0_1"
				(rectangle
					(start -10.16 12.7)
					(end 10.16 -12.7)
					(stroke
						(width 0.254)
						(type default)
					)
					(fill
						(type background)
					)
				)
				(rectangle
					(start -2.794 -12.7)
					(end -2.286 -11.684)
					(stroke
						(width 0)
						(type default)
					)
					(fill
						(type none)
					)
				)
				(rectangle
					(start -0.254 -12.7)
					(end 0.254 -11.684)
					(stroke
						(width 0)
						(type default)
					)
					(fill
						(type none)
					)
				)
				(rectangle
					(start -0.254 12.7)
					(end 0.254 11.684)
					(stroke
						(width 0)
						(type default)
					)
					(fill
						(type none)
					)
				)
				(rectangle
					(start 9.144 2.286)
					(end 10.16 2.794)
					(stroke
						(width 0)
						(type default)
					)
					(fill
						(type none)
					)
				)
				(rectangle
					(start 10.16 -2.794)
					(end 9.144 -2.286)
					(stroke
						(width 0)
						(type default)
					)
					(fill
						(type none)
					)
				)
				(rectangle
					(start 10.16 -0.254)
					(end 9.144 0.254)
					(stroke
						(width 0)
						(type default)
					)
					(fill
						(type none)
					)
				)
				(rectangle
					(start 10.16 7.874)
					(end 9.144 7.366)
					(stroke
						(width 0)
						(type default)
					)
					(fill
						(type none)
					)
				)
			)
			(symbol "Conn_ARM_JTAG_SWD_10_1_1"
				(rectangle
					(start 9.144 -5.334)
					(end 10.16 -4.826)
					(stroke
						(width 0)
						(type default)
					)
					(fill
						(type none)
					)
				)
				(pin power_in line
					(at 0 15.24 270)
					(length 2.54)
					(name "VTref"
						(effects
							(font
								(size 1.27 1.27)
							)
						)
					)
					(number "1"
						(effects
							(font
								(size 1.27 1.27)
							)
						)
					)
				)
				(pin open_collector line
					(at 12.7 7.62 180)
					(length 2.54)
					(name "~{RESET}"
						(effects
							(font
								(size 1.27 1.27)
							)
						)
					)
					(number "10"
						(effects
							(font
								(size 1.27 1.27)
							)
						)
					)
				)
				(pin bidirectional line
					(at 12.7 0 180)
					(length 2.54)
					(name "SWDIO/TMS"
						(effects
							(font
								(size 1.27 1.27)
							)
						)
					)
					(number "2"
						(effects
							(font
								(size 1.27 1.27)
							)
						)
					)
				)
				(pin power_in line
					(at 0 -15.24 90)
					(length 2.54)
					(name "GND"
						(effects
							(font
								(size 1.27 1.27)
							)
						)
					)
					(number "3"
						(effects
							(font
								(size 1.27 1.27)
							)
						)
					)
				)
				(pin output line
					(at 12.7 2.54 180)
					(length 2.54)
					(name "SWDCLK/TCK"
						(effects
							(font
								(size 1.27 1.27)
							)
						)
					)
					(number "4"
						(effects
							(font
								(size 1.27 1.27)
							)
						)
					)
				)
				(pin passive line
					(at 0 -15.24 90)
					(length 2.54) hide
					(name "GND"
						(effects
							(font
								(size 1.27 1.27)
							)
						)
					)
					(number "5"
						(effects
							(font
								(size 1.27 1.27)
							)
						)
					)
				)
				(pin input line
					(at 12.7 -2.54 180)
					(length 2.54)
					(name "SWO/TDO"
						(effects
							(font
								(size 1.27 1.27)
							)
						)
					)
					(number "6"
						(effects
							(font
								(size 1.27 1.27)
							)
						)
					)
				)
				(pin no_connect line
					(at -10.16 0 0)
					(length 2.54) hide
					(name "KEY"
						(effects
							(font
								(size 1.27 1.27)
							)
						)
					)
					(number "7"
						(effects
							(font
								(size 1.27 1.27)
							)
						)
					)
				)
				(pin output line
					(at 12.7 -5.08 180)
					(length 2.54)
					(name "NC/TDI"
						(effects
							(font
								(size 1.27 1.27)
							)
						)
					)
					(number "8"
						(effects
							(font
								(size 1.27 1.27)
							)
						)
					)
				)
				(pin passive line
					(at -2.54 -15.24 90)
					(length 2.54)
					(name "GNDDetect"
						(effects
							(font
								(size 1.27 1.27)
							)
						)
					)
					(number "9"
						(effects
							(font
								(size 1.27 1.27)
							)
						)
					)
				)
			)
		)
		(symbol "Connector:USB_C_Receptacle_USB2.0"
			(pin_names
				(offset 1.016)
			)
			(exclude_from_sim no)
			(in_bom yes)
			(on_board yes)
			(property "Reference" "J"
				(at -10.16 19.05 0)
				(effects
					(font
						(size 1.27 1.27)
					)
					(justify left)
				)
			)
			(property "Value" "USB_C_Receptacle_USB2.0"
				(at 19.05 19.05 0)
				(effects
					(font
						(size 1.27 1.27)
					)
					(justify right)
				)
			)
			(property "Footprint" ""
				(at 3.81 0 0)
				(effects
					(font
						(size 1.27 1.27)
					)
					(hide yes)
				)
			)
			(property "Datasheet" "https://www.usb.org/sites/default/files/documents/usb_type-c.zip"
				(at 3.81 0 0)
				(effects
					(font
						(size 1.27 1.27)
					)
					(hide yes)
				)
			)
			(property "Description" "USB 2.0-only Type-C Receptacle connector"
				(at 0 0 0)
				(effects
					(font
						(size 1.27 1.27)
					)
					(hide yes)
				)
			)
			(property "ki_keywords" "usb universal serial bus type-C USB2.0"
				(at 0 0 0)
				(effects
					(font
						(size 1.27 1.27)
					)
					(hide yes)
				)
			)
			(property "ki_fp_filters" "USB*C*Receptacle*"
				(at 0 0 0)
				(effects
					(font
						(size 1.27 1.27)
					)
					(hide yes)
				)
			)
			(symbol "USB_C_Receptacle_USB2.0_0_0"
				(rectangle
					(start -0.254 -17.78)
					(end 0.254 -16.764)
					(stroke
						(width 0)
						(type default)
					)
					(fill
						(type none)
					)
				)
				(rectangle
					(start 10.16 -14.986)
					(end 9.144 -15.494)
					(stroke
						(width 0)
						(type default)
					)
					(fill
						(type none)
					)
				)
				(rectangle
					(start 10.16 -12.446)
					(end 9.144 -12.954)
					(stroke
						(width 0)
						(type default)
					)
					(fill
						(type none)
					)
				)
				(rectangle
					(start 10.16 -4.826)
					(end 9.144 -5.334)
					(stroke
						(width 0)
						(type default)
					)
					(fill
						(type none)
					)
				)
				(rectangle
					(start 10.16 -2.286)
					(end 9.144 -2.794)
					(stroke
						(width 0)
						(type default)
					)
					(fill
						(type none)
					)
				)
				(rectangle
					(start 10.16 0.254)
					(end 9.144 -0.254)
					(stroke
						(width 0)
						(type default)
					)
					(fill
						(type none)
					)
				)
				(rectangle
					(start 10.16 2.794)
					(end 9.144 2.286)
					(stroke
						(width 0)
						(type default)
					)
					(fill
						(type none)
					)
				)
				(rectangle
					(start 10.16 7.874)
					(end 9.144 7.366)
					(stroke
						(width 0)
						(type default)
					)
					(fill
						(type none)
					)
				)
				(rectangle
					(start 10.16 10.414)
					(end 9.144 9.906)
					(stroke
						(width 0)
						(type default)
					)
					(fill
						(type none)
					)
				)
				(rectangle
					(start 10.16 15.494)
					(end 9.144 14.986)
					(stroke
						(width 0)
						(type default)
					)
					(fill
						(type none)
					)
				)
			)
			(symbol "USB_C_Receptacle_USB2.0_0_1"
				(rectangle
					(start -10.16 17.78)
					(end 10.16 -17.78)
					(stroke
						(width 0.254)
						(type default)
					)
					(fill
						(type background)
					)
				)
				(arc
					(start -8.89 -3.81)
					(mid -6.985 -5.7067)
					(end -5.08 -3.81)
					(stroke
						(width 0.508)
						(type default)
					)
					(fill
						(type none)
					)
				)
				(arc
					(start -7.62 -3.81)
					(mid -6.985 -4.4423)
					(end -6.35 -3.81)
					(stroke
						(width 0.254)
						(type default)
					)
					(fill
						(type none)
					)
				)
				(arc
					(start -7.62 -3.81)
					(mid -6.985 -4.4423)
					(end -6.35 -3.81)
					(stroke
						(width 0.254)
						(type default)
					)
					(fill
						(type outline)
					)
				)
				(rectangle
					(start -7.62 -3.81)
					(end -6.35 3.81)
					(stroke
						(width 0.254)
						(type default)
					)
					(fill
						(type outline)
					)
				)
				(arc
					(start -6.35 3.81)
					(mid -6.985 4.4423)
					(end -7.62 3.81)
					(stroke
						(width 0.254)
						(type default)
					)
					(fill
						(type none)
					)
				)
				(arc
					(start -6.35 3.81)
					(mid -6.985 4.4423)
					(end -7.62 3.81)
					(stroke
						(width 0.254)
						(type default)
					)
					(fill
						(type outline)
					)
				)
				(arc
					(start -5.08 3.81)
					(mid -6.985 5.7067)
					(end -8.89 3.81)
					(stroke
						(width 0.508)
						(type default)
					)
					(fill
						(type none)
					)
				)
				(circle
					(center -2.54 1.143)
					(radius 0.635)
					(stroke
						(width 0.254)
						(type default)
					)
					(fill
						(type outline)
					)
				)
				(circle
					(center 0 -5.842)
					(radius 1.27)
					(stroke
						(width 0)
						(type default)
					)
					(fill
						(type outline)
					)
				)
				(polyline
					(pts
						(xy -8.89 -3.81) (xy -8.89 3.81)
					)
					(stroke
						(width 0.508)
						(type default)
					)
					(fill
						(type none)
					)
				)
				(polyline
					(pts
						(xy -5.08 3.81) (xy -5.08 -3.81)
					)
					(stroke
						(width 0.508)
						(type default)
					)
					(fill
						(type none)
					)
				)
				(polyline
					(pts
						(xy 0 -5.842) (xy 0 4.318)
					)
					(stroke
						(width 0.508)
						(type default)
					)
					(fill
						(type none)
					)
				)
				(polyline
					(pts
						(xy 0 -3.302) (xy -2.54 -0.762) (xy -2.54 0.508)
					)
					(stroke
						(width 0.508)
						(type default)
					)
					(fill
						(type none)
					)
				)
				(polyline
					(pts
						(xy 0 -2.032) (xy 2.54 0.508) (xy 2.54 1.778)
					)
					(stroke
						(width 0.508)
						(type default)
					)
					(fill
						(type none)
					)
				)
				(polyline
					(pts
						(xy -1.27 4.318) (xy 0 6.858) (xy 1.27 4.318) (xy -1.27 4.318)
					)
					(stroke
						(width 0.254)
						(type default)
					)
					(fill
						(type outline)
					)
				)
				(rectangle
					(start 1.905 1.778)
					(end 3.175 3.048)
					(stroke
						(width 0.254)
						(type default)
					)
					(fill
						(type outline)
					)
				)
			)
			(symbol "USB_C_Receptacle_USB2.0_1_1"
				(pin passive line
					(at 0 -22.86 90)
					(length 5.08)
					(name "GND"
						(effects
							(font
								(size 1.27 1.27)
							)
						)
					)
					(number "A1"
						(effects
							(font
								(size 1.27 1.27)
							)
						)
					)
				)
				(pin passive line
					(at 0 -22.86 90)
					(length 5.08) hide
					(name "GND"
						(effects
							(font
								(size 1.27 1.27)
							)
						)
					)
					(number "A12"
						(effects
							(font
								(size 1.27 1.27)
							)
						)
					)
				)
				(pin passive line
					(at 15.24 15.24 180)
					(length 5.08)
					(name "VBUS"
						(effects
							(font
								(size 1.27 1.27)
							)
						)
					)
					(number "A4"
						(effects
							(font
								(size 1.27 1.27)
							)
						)
					)
				)
				(pin bidirectional line
					(at 15.24 10.16 180)
					(length 5.08)
					(name "CC1"
						(effects
							(font
								(size 1.27 1.27)
							)
						)
					)
					(number "A5"
						(effects
							(font
								(size 1.27 1.27)
							)
						)
					)
				)
				(pin bidirectional line
					(at 15.24 -2.54 180)
					(length 5.08)
					(name "D+"
						(effects
							(font
								(size 1.27 1.27)
							)
						)
					)
					(number "A6"
						(effects
							(font
								(size 1.27 1.27)
							)
						)
					)
				)
				(pin bidirectional line
					(at 15.24 2.54 180)
					(length 5.08)
					(name "D-"
						(effects
							(font
								(size 1.27 1.27)
							)
						)
					)
					(number "A7"
						(effects
							(font
								(size 1.27 1.27)
							)
						)
					)
				)
				(pin bidirectional line
					(at 15.24 -12.7 180)
					(length 5.08)
					(name "SBU1"
						(effects
							(font
								(size 1.27 1.27)
							)
						)
					)
					(number "A8"
						(effects
							(font
								(size 1.27 1.27)
							)
						)
					)
				)
				(pin passive line
					(at 15.24 15.24 180)
					(length 5.08) hide
					(name "VBUS"
						(effects
							(font
								(size 1.27 1.27)
							)
						)
					)
					(number "A9"
						(effects
							(font
								(size 1.27 1.27)
							)
						)
					)
				)
				(pin passive line
					(at 0 -22.86 90)
					(length 5.08) hide
					(name "GND"
						(effects
							(font
								(size 1.27 1.27)
							)
						)
					)
					(number "B1"
						(effects
							(font
								(size 1.27 1.27)
							)
						)
					)
				)
				(pin passive line
					(at 0 -22.86 90)
					(length 5.08) hide
					(name "GND"
						(effects
							(font
								(size 1.27 1.27)
							)
						)
					)
					(number "B12"
						(effects
							(font
								(size 1.27 1.27)
							)
						)
					)
				)
				(pin passive line
					(at 15.24 15.24 180)
					(length 5.08) hide
					(name "VBUS"
						(effects
							(font
								(size 1.27 1.27)
							)
						)
					)
					(number "B4"
						(effects
							(font
								(size 1.27 1.27)
							)
						)
					)
				)
				(pin bidirectional line
					(at 15.24 7.62 180)
					(length 5.08)
					(name "CC2"
						(effects
							(font
								(size 1.27 1.27)
							)
						)
					)
					(number "B5"
						(effects
							(font
								(size 1.27 1.27)
							)
						)
					)
				)
				(pin bidirectional line
					(at 15.24 -5.08 180)
					(length 5.08)
					(name "D+"
						(effects
							(font
								(size 1.27 1.27)
							)
						)
					)
					(number "B6"
						(effects
							(font
								(size 1.27 1.27)
							)
						)
					)
				)
				(pin bidirectional line
					(at 15.24 0 180)
					(length 5.08)
					(name "D-"
						(effects
							(font
								(size 1.27 1.27)
							)
						)
					)
					(number "B7"
						(effects
							(font
								(size 1.27 1.27)
							)
						)
					)
				)
				(pin bidirectional line
					(at 15.24 -15.24 180)
					(length 5.08)
					(name "SBU2"
						(effects
							(font
								(size 1.27 1.27)
							)
						)
					)
					(number "B8"
						(effects
							(font
								(size 1.27 1.27)
							)
						)
					)
				)
				(pin passive line
					(at 15.24 15.24 180)
					(length 5.08) hide
					(name "VBUS"
						(effects
							(font
								(size 1.27 1.27)
							)
						)
					)
					(number "B9"
						(effects
							(font
								(size 1.27 1.27)
							)
						)
					)
				)
				(pin passive line
					(at -7.62 -22.86 90)
					(length 5.08)
					(name "SHIELD"
						(effects
							(font
								(size 1.27 1.27)
							)
						)
					)
					(number "S1"
						(effects
							(font
								(size 1.27 1.27)
							)
						)
					)
				)
			)
		)
		(symbol "Device:C"
			(pin_numbers hide)
			(pin_names
				(offset 0.254)
			)
			(exclude_from_sim no)
			(in_bom yes)
			(on_board yes)
			(property "Reference" "C"
				(at 0.635 2.54 0)
				(effects
					(font
						(size 1.27 1.27)
					)
					(justify left)
				)
			)
			(property "Value" "C"
				(at 0.635 -2.54 0)
				(effects
					(font
						(size 1.27 1.27)
					)
					(justify left)
				)
			)
			(property "Footprint" ""
				(at 0.9652 -3.81 0)
				(effects
					(font
						(size 1.27 1.27)
					)
					(hide yes)
				)
			)
			(property "Datasheet" "~"
				(at 0 0 0)
				(effects
					(font
						(size 1.27 1.27)
					)
					(hide yes)
				)
			)
			(property "Description" "Unpolarized capacitor"
				(at 0 0 0)
				(effects
					(font
						(size 1.27 1.27)
					)
					(hide yes)
				)
			)
			(property "ki_keywords" "cap capacitor"
				(at 0 0 0)
				(effects
					(font
						(size 1.27 1.27)
					)
					(hide yes)
				)
			)
			(property "ki_fp_filters" "C_*"
				(at 0 0 0)
				(effects
					(font
						(size 1.27 1.27)
					)
					(hide yes)
				)
			)
			(symbol "C_0_1"
				(polyline
					(pts
						(xy -2.032 -0.762) (xy 2.032 -0.762)
					)
					(stroke
						(width 0.508)
						(type default)
					)
					(fill
						(type none)
					)
				)
				(polyline
					(pts
						(xy -2.032 0.762) (xy 2.032 0.762)
					)
					(stroke
						(width 0.508)
						(type default)
					)
					(fill
						(type none)
					)
				)
			)
			(symbol "C_1_1"
				(pin passive line
					(at 0 3.81 270)
					(length 2.794)
					(name "~"
						(effects
							(font
								(size 1.27 1.27)
							)
						)
					)
					(number "1"
						(effects
							(font
								(size 1.27 1.27)
							)
						)
					)
				)
				(pin passive line
					(at 0 -3.81 90)
					(length 2.794)
					(name "~"
						(effects
							(font
								(size 1.27 1.27)
							)
						)
					)
					(number "2"
						(effects
							(font
								(size 1.27 1.27)
							)
						)
					)
				)
			)
		)
		(symbol "Device:D_Schottky"
			(pin_numbers hide)
			(pin_names
				(offset 1.016) hide)
			(exclude_from_sim no)
			(in_bom yes)
			(on_board yes)
			(property "Reference" "D"
				(at 0 2.54 0)
				(effects
					(font
						(size 1.27 1.27)
					)
				)
			)
			(property "Value" "D_Schottky"
				(at 0 -2.54 0)
				(effects
					(font
						(size 1.27 1.27)
					)
				)
			)
			(property "Footprint" ""
				(at 0 0 0)
				(effects
					(font
						(size 1.27 1.27)
					)
					(hide yes)
				)
			)
			(property "Datasheet" "~"
				(at 0 0 0)
				(effects
					(font
						(size 1.27 1.27)
					)
					(hide yes)
				)
			)
			(property "Description" "Schottky diode"
				(at 0 0 0)
				(effects
					(font
						(size 1.27 1.27)
					)
					(hide yes)
				)
			)
			(property "ki_keywords" "diode Schottky"
				(at 0 0 0)
				(effects
					(font
						(size 1.27 1.27)
					)
					(hide yes)
				)
			)
			(property "ki_fp_filters" "TO-???* *_Diode_* *SingleDiode* D_*"
				(at 0 0 0)
				(effects
					(font
						(size 1.27 1.27)
					)
					(hide yes)
				)
			)
			(symbol "D_Schottky_0_1"
				(polyline
					(pts
						(xy 1.27 0) (xy -1.27 0)
					)
					(stroke
						(width 0)
						(type default)
					)
					(fill
						(type none)
					)
				)
				(polyline
					(pts
						(xy 1.27 1.27) (xy 1.27 -1.27) (xy -1.27 0) (xy 1.27 1.27)
					)
					(stroke
						(width 0.254)
						(type default)
					)
					(fill
						(type none)
					)
				)
				(polyline
					(pts
						(xy -1.905 0.635) (xy -1.905 1.27) (xy -1.27 1.27) (xy -1.27 -1.27) (xy -0.635 -1.27) (xy -0.635 -0.635)
					)
					(stroke
						(width 0.254)
						(type default)
					)
					(fill
						(type none)
					)
				)
			)
			(symbol "D_Schottky_1_1"
				(pin passive line
					(at -3.81 0 0)
					(length 2.54)
					(name "K"
						(effects
							(font
								(size 1.27 1.27)
							)
						)
					)
					(number "1"
						(effects
							(font
								(size 1.27 1.27)
							)
						)
					)
				)
				(pin passive line
					(at 3.81 0 180)
					(length 2.54)
					(name "A"
						(effects
							(font
								(size 1.27 1.27)
							)
						)
					)
					(number "2"
						(effects
							(font
								(size 1.27 1.27)
							)
						)
					)
				)
			)
		)
		(symbol "Device:R"
			(pin_numbers hide)
			(pin_names
				(offset 0)
			)
			(exclude_from_sim no)
			(in_bom yes)
			(on_board yes)
			(property "Reference" "R"
				(at 2.032 0 90)
				(effects
					(font
						(size 1.27 1.27)
					)
				)
			)
			(property "Value" "R"
				(at 0 0 90)
				(effects
					(font
						(size 1.27 1.27)
					)
				)
			)
			(property "Footprint" ""
				(at -1.778 0 90)
				(effects
					(font
						(size 1.27 1.27)
					)
					(hide yes)
				)
			)
			(property "Datasheet" "~"
				(at 0 0 0)
				(effects
					(font
						(size 1.27 1.27)
					)
					(hide yes)
				)
			)
			(property "Description" "Resistor"
				(at 0 0 0)
				(effects
					(font
						(size 1.27 1.27)
					)
					(hide yes)
				)
			)
			(property "ki_keywords" "R res resistor"
				(at 0 0 0)
				(effects
					(font
						(size 1.27 1.27)
					)
					(hide yes)
				)
			)
			(property "ki_fp_filters" "R_*"
				(at 0 0 0)
				(effects
					(font
						(size 1.27 1.27)
					)
					(hide yes)
				)
			)
			(symbol "R_0_1"
				(rectangle
					(start -1.016 -2.54)
					(end 1.016 2.54)
					(stroke
						(width 0.254)
						(type default)
					)
					(fill
						(type none)
					)
				)
			)
			(symbol "R_1_1"
				(pin passive line
					(at 0 3.81 270)
					(length 1.27)
					(name "~"
						(effects
							(font
								(size 1.27 1.27)
							)
						)
					)
					(number "1"
						(effects
							(font
								(size 1.27 1.27)
							)
						)
					)
				)
				(pin passive line
					(at 0 -3.81 90)
					(length 1.27)
					(name "~"
						(effects
							(font
								(size 1.27 1.27)
							)
						)
					)
					(number "2"
						(effects
							(font
								(size 1.27 1.27)
							)
						)
					)
				)
			)
		)
		(symbol "power:+3V3"
			(power)
			(pin_names
				(offset 0)
			)
			(exclude_from_sim no)
			(in_bom yes)
			(on_board yes)
			(property "Reference" "#PWR"
				(at 0 -3.81 0)
				(effects
					(font
						(size 1.27 1.27)
					)
					(hide yes)
				)
			)
			(property "Value" "+3V3"
				(at 0 3.556 0)
				(effects
					(font
						(size 1.27 1.27)
					)
				)
			)
			(property "Footprint" ""
				(at 0 0 0)
				(effects
					(font
						(size 1.27 1.27)
					)
					(hide yes)
				)
			)
			(property "Datasheet" ""
				(at 0 0 0)
				(effects
					(font
						(size 1.27 1.27)
					)
					(hide yes)
				)
			)
			(property "Description" "Power symbol creates a global label with name \"+3V3\""
				(at 0 0 0)
				(effects
					(font
						(size 1.27 1.27)
					)
					(hide yes)
				)
			)
			(property "ki_keywords" "power-flag"
				(at 0 0 0)
				(effects
					(font
						(size 1.27 1.27)
					)
					(hide yes)
				)
			)
			(symbol "+3V3_0_1"
				(polyline
					(pts
						(xy -0.762 1.27) (xy 0 2.54)
					)
					(stroke
						(width 0)
						(type default)
					)
					(fill
						(type none)
					)
				)
				(polyline
					(pts
						(xy 0 0) (xy 0 2.54)
					)
					(stroke
						(width 0)
						(type default)
					)
					(fill
						(type none)
					)
				)
				(polyline
					(pts
						(xy 0 2.54) (xy 0.762 1.27)
					)
					(stroke
						(width 0)
						(type default)
					)
					(fill
						(type none)
					)
				)
			)
			(symbol "+3V3_1_1"
				(pin power_in line
					(at 0 0 90)
					(length 0) hide
					(name "+3V3"
						(effects
							(font
								(size 1.27 1.27)
							)
						)
					)
					(number "1"
						(effects
							(font
								(size 1.27 1.27)
							)
						)
					)
				)
			)
		)
		(symbol "power:+5V"
			(power)
			(pin_names
				(offset 0)
			)
			(exclude_from_sim no)
			(in_bom yes)
			(on_board yes)
			(property "Reference" "#PWR"
				(at 0 -3.81 0)
				(effects
					(font
						(size 1.27 1.27)
					)
					(hide yes)
				)
			)
			(property "Value" "+5V"
				(at 0 3.556 0)
				(effects
					(font
						(size 1.27 1.27)
					)
				)
			)
			(property "Footprint" ""
				(at 0 0 0)
				(effects
					(font
						(size 1.27 1.27)
					)
					(hide yes)
				)
			)
			(property "Datasheet" ""
				(at 0 0 0)
				(effects
					(font
						(size 1.27 1.27)
					)
					(hide yes)
				)
			)
			(property "Description" "Power symbol creates a global label with name \"+5V\""
				(at 0 0 0)
				(effects
					(font
						(size 1.27 1.27)
					)
					(hide yes)
				)
			)
			(property "ki_keywords" "power-flag"
				(at 0 0 0)
				(effects
					(font
						(size 1.27 1.27)
					)
					(hide yes)
				)
			)
			(symbol "+5V_0_1"
				(polyline
					(pts
						(xy -0.762 1.27) (xy 0 2.54)
					)
					(stroke
						(width 0)
						(type default)
					)
					(fill
						(type none)
					)
				)
				(polyline
					(pts
						(xy 0 0) (xy 0 2.54)
					)
					(stroke
						(width 0)
						(type default)
					)
					(fill
						(type none)
					)
				)
				(polyline
					(pts
						(xy 0 2.54) (xy 0.762 1.27)
					)
					(stroke
						(width 0)
						(type default)
					)
					(fill
						(type none)
					)
				)
			)
			(symbol "+5V_1_1"
				(pin power_in line
					(at 0 0 90)
					(length 0) hide
					(name "+5V"
						(effects
							(font
								(size 1.27 1.27)
							)
						)
					)
					(number "1"
						(effects
							(font
								(size 1.27 1.27)
							)
						)
					)
				)
			)
		)
		(symbol "power:GND"
			(power)
			(pin_names
				(offset 0)
			)
			(exclude_from_sim no)
			(in_bom yes)
			(on_board yes)
			(property "Reference" "#PWR"
				(at 0 -6.35 0)
				(effects
					(font
						(size 1.27 1.27)
					)
					(hide yes)
				)
			)
			(property "Value" "GND"
				(at 0 -3.81 0)
				(effects
					(font
						(size 1.27 1.27)
					)
				)
			)
			(property "Footprint" ""
				(at 0 0 0)
				(effects
					(font
						(size 1.27 1.27)
					)
					(hide yes)
				)
			)
			(property "Datasheet" ""
				(at 0 0 0)
				(effects
					(font
						(size 1.27 1.27)
					)
					(hide yes)
				)
			)
			(property "Description" "Power symbol creates a global label with name \"GND\" , ground"
				(at 0 0 0)
				(effects
					(font
						(size 1.27 1.27)
					)
					(hide yes)
				)
			)
			(property "ki_keywords" "power-flag"
				(at 0 0 0)
				(effects
					(font
						(size 1.27 1.27)
					)
					(hide yes)
				)
			)
			(symbol "GND_0_1"
				(polyline
					(pts
						(xy 0 0) (xy 0 -1.27) (xy 1.27 -1.27) (xy 0 -2.54) (xy -1.27 -1.27) (xy 0 -1.27)
					)
					(stroke
						(width 0)
						(type default)
					)
					(fill
						(type none)
					)
				)
			)
			(symbol "GND_1_1"
				(pin power_in line
					(at 0 0 270)
					(length 0) hide
					(name "GND"
						(effects
							(font
								(size 1.27 1.27)
							)
						)
					)
					(number "1"
						(effects
							(font
								(size 1.27 1.27)
							)
						)
					)
				)
			)
		)
	)
	(junction
		(at 80.01 81.28)
		(diameter 0)
		(color 0 0 0 0)
		(uuid "1f7d3ba8-92e1-4859-8ad7-209a45496092")
	)
	(junction
		(at 180.34 125.73)
		(diameter 0)
		(color 0 0 0 0)
		(uuid "20870fb7-856d-4f0a-920a-ad99e20f358e")
	)
	(junction
		(at 77.47 128.27)
		(diameter 0)
		(color 0 0 0 0)
		(uuid "2b7f584b-7e10-4f86-b483-f555c286d68d")
	)
	(junction
		(at 223.52 82.55)
		(diameter 0)
		(color 0 0 0 0)
		(uuid "3367101a-1645-4452-8e9d-083f979e0296")
	)
	(junction
		(at 172.72 135.89)
		(diameter 0)
		(color 0 0 0 0)
		(uuid "5cb4a1ef-0658-417f-bec3-a98a633d1784")
	)
	(junction
		(at 180.34 123.19)
		(diameter 0)
		(color 0 0 0 0)
		(uuid "6657cd61-b5d6-45ba-a9f6-628dfc1cc6c3")
	)
	(junction
		(at 180.34 135.89)
		(diameter 0)
		(color 0 0 0 0)
		(uuid "6dadea14-2745-4ed8-b17c-1ba1441b3cb4")
	)
	(junction
		(at 95.25 92.71)
		(diameter 0)
		(color 0 0 0 0)
		(uuid "7b875e24-af5b-4e40-801d-7bf1a9e19e52")
	)
	(junction
		(at 172.72 123.19)
		(diameter 0)
		(color 0 0 0 0)
		(uuid "f30d4dc0-edf4-47ef-8722-eb381cb11711")
	)
	(no_connect
		(at 196.85 110.49)
		(uuid "2769988d-dd99-4999-8d88-3bb52a85de33")
	)
	(no_connect
		(at 196.85 113.03)
		(uuid "2769988d-dd99-4999-8d88-3bb52a85de34")
	)
	(wire
		(pts
			(xy 167.64 133.35) (xy 167.64 135.89)
		)
		(stroke
			(width 0)
			(type default)
		)
		(uuid "0155aa0c-0526-460b-a0d4-d51649989148")
	)
	(wire
		(pts
			(xy 198.12 101.6) (xy 196.85 102.87)
		)
		(stroke
			(width 0)
			(type default)
		)
		(uuid "015a3016-c54f-437a-a16e-5deac699dcde")
	)
	(wire
		(pts
			(xy 95.25 81.28) (xy 80.01 81.28)
		)
		(stroke
			(width 0)
			(type default)
		)
		(uuid "0214f5db-68f5-4182-baf5-b073898f8580")
	)
	(wire
		(pts
			(xy 195.58 113.03) (xy 196.85 113.03)
		)
		(stroke
			(width 0)
			(type default)
		)
		(uuid "021c5433-d67b-4aee-a8d6-c3da1fb4928e")
	)
	(wire
		(pts
			(xy 212.09 82.55) (xy 223.52 82.55)
		)
		(stroke
			(width 0)
			(type default)
		)
		(uuid "02323990-cd4b-4ae1-adef-dfcb4232a325")
	)
	(wire
		(pts
			(xy 195.58 100.33) (xy 196.85 100.33)
		)
		(stroke
			(width 0)
			(type default)
		)
		(uuid "024d2e78-c84c-4d7d-9ccd-cb4154d9dc0c")
	)
	(wire
		(pts
			(xy 92.71 105.41) (xy 95.25 105.41)
		)
		(stroke
			(width 0)
			(type default)
		)
		(uuid "06c11d33-d7de-480c-9eb1-b940ff07bb30")
	)
	(wire
		(pts
			(xy 180.34 123.19) (xy 180.34 125.73)
		)
		(stroke
			(width 0)
			(type default)
		)
		(uuid "081494fe-f1ec-498d-9b94-9be584da70de")
	)
	(wire
		(pts
			(xy 95.25 92.71) (xy 95.25 90.17)
		)
		(stroke
			(width 0)
			(type default)
		)
		(uuid "16043611-6349-43fe-9b28-40495196b2d7")
	)
	(wire
		(pts
			(xy 92.71 92.71) (xy 95.25 92.71)
		)
		(stroke
			(width 0)
			(type default)
		)
		(uuid "1908186a-4845-43cf-b81e-9cba8fd70ef0")
	)
	(wire
		(pts
			(xy 215.9 123.19) (xy 180.34 123.19)
		)
		(stroke
			(width 0)
			(type default)
		)
		(uuid "1a2ad338-d508-4295-bc2c-4679f3b46cd2")
	)
	(wire
		(pts
			(xy 172.72 135.89) (xy 180.34 135.89)
		)
		(stroke
			(width 0)
			(type default)
		)
		(uuid "1e6e8418-dc41-4851-a9fb-9805bae8d085")
	)
	(wire
		(pts
			(xy 215.9 90.17) (xy 215.9 105.41)
		)
		(stroke
			(width 0)
			(type default)
		)
		(uuid "20028de6-ef89-4172-8146-c05e5e114fa3")
	)
	(wire
		(pts
			(xy 92.71 100.33) (xy 95.25 100.33)
		)
		(stroke
			(width 0)
			(type default)
		)
		(uuid "242b761b-c53a-4331-81e4-f0512fe6e3a0")
	)
	(wire
		(pts
			(xy 218.44 87.63) (xy 218.44 105.41)
		)
		(stroke
			(width 0)
			(type default)
		)
		(uuid "2679a45f-d4c4-417c-9401-846600572cb0")
	)
	(wire
		(pts
			(xy 223.52 82.55) (xy 223.52 85.09)
		)
		(stroke
			(width 0)
			(type default)
		)
		(uuid "268343f4-f323-4e2c-a5fa-4da5c45b4e9d")
	)
	(wire
		(pts
			(xy 195.58 90.17) (xy 215.9 90.17)
		)
		(stroke
			(width 0)
			(type default)
		)
		(uuid "32143cc3-f7c0-4e9f-88b6-c098fc948171")
	)
	(wire
		(pts
			(xy 218.44 125.73) (xy 180.34 125.73)
		)
		(stroke
			(width 0)
			(type default)
		)
		(uuid "32762456-c86a-4ea0-a3ce-b919e5e564e8")
	)
	(wire
		(pts
			(xy 92.71 97.79) (xy 95.25 97.79)
		)
		(stroke
			(width 0)
			(type default)
		)
		(uuid "39a3fa88-f938-47b9-b281-91f73d139dde")
	)
	(wire
		(pts
			(xy 180.34 135.89) (xy 180.34 138.43)
		)
		(stroke
			(width 0)
			(type default)
		)
		(uuid "47e691c9-8911-4c00-91a2-40295cb0557f")
	)
	(wire
		(pts
			(xy 223.52 80.01) (xy 223.52 82.55)
		)
		(stroke
			(width 0)
			(type default)
		)
		(uuid "49ac2b6b-5619-4c45-a68f-ba587d67cab4")
	)
	(wire
		(pts
			(xy 196.85 102.87) (xy 195.58 102.87)
		)
		(stroke
			(width 0)
			(type default)
		)
		(uuid "5000e6f6-f76d-445c-b3c5-a12cfd10fa21")
	)
	(wire
		(pts
			(xy 80.01 81.28) (xy 80.01 85.09)
		)
		(stroke
			(width 0)
			(type default)
		)
		(uuid "5962beab-579d-4bad-a123-7f27f9df3ccd")
	)
	(wire
		(pts
			(xy 215.9 113.03) (xy 215.9 123.19)
		)
		(stroke
			(width 0)
			(type default)
		)
		(uuid "67ea8794-7366-4817-af33-ab9cf61d080e")
	)
	(wire
		(pts
			(xy 80.01 115.57) (xy 80.01 128.27)
		)
		(stroke
			(width 0)
			(type default)
		)
		(uuid "699f2587-a990-4bec-9b0c-7feda503c054")
	)
	(wire
		(pts
			(xy 77.47 115.57) (xy 77.47 118.11)
		)
		(stroke
			(width 0)
			(type default)
		)
		(uuid "6d113344-bd8e-43b9-b80d-e90f82068351")
	)
	(wire
		(pts
			(xy 95.25 92.71) (xy 97.79 92.71)
		)
		(stroke
			(width 0)
			(type default)
		)
		(uuid "7b642a4a-61da-4cec-82ee-11f09f49e50a")
	)
	(wire
		(pts
			(xy 196.85 100.33) (xy 198.12 101.6)
		)
		(stroke
			(width 0)
			(type default)
		)
		(uuid "8554104c-fe55-4841-93be-5c3996e7a2a7")
	)
	(wire
		(pts
			(xy 80.01 128.27) (xy 77.47 128.27)
		)
		(stroke
			(width 0)
			(type default)
		)
		(uuid "8b4a2c35-9342-49b3-a4cb-65fd70b9dd57")
	)
	(wire
		(pts
			(xy 167.64 125.73) (xy 167.64 123.19)
		)
		(stroke
			(width 0)
			(type default)
		)
		(uuid "8bf7af37-4773-4eaf-abde-2ee67170404d")
	)
	(wire
		(pts
			(xy 172.72 120.65) (xy 172.72 123.19)
		)
		(stroke
			(width 0)
			(type default)
		)
		(uuid "8d0d24f9-714c-4efb-b138-97015396dc66")
	)
	(wire
		(pts
			(xy 180.34 120.65) (xy 180.34 123.19)
		)
		(stroke
			(width 0)
			(type default)
		)
		(uuid "8e0e2337-a6bf-40de-84d0-2d1d6419b9a7")
	)
	(wire
		(pts
			(xy 80.01 78.74) (xy 80.01 81.28)
		)
		(stroke
			(width 0)
			(type default)
		)
		(uuid "906eac88-3651-4678-93a0-ab66fe294687")
	)
	(wire
		(pts
			(xy 92.71 102.87) (xy 95.25 102.87)
		)
		(stroke
			(width 0)
			(type default)
		)
		(uuid "95eb6d85-9853-48b5-a778-897cf17794a0")
	)
	(wire
		(pts
			(xy 195.58 95.25) (xy 196.85 95.25)
		)
		(stroke
			(width 0)
			(type default)
		)
		(uuid "9d9d6173-042b-47df-b060-2778ec2a1494")
	)
	(wire
		(pts
			(xy 167.64 123.19) (xy 172.72 123.19)
		)
		(stroke
			(width 0)
			(type default)
		)
		(uuid "9fecc358-edf5-456e-8b28-93970b0149c2")
	)
	(wire
		(pts
			(xy 95.25 82.55) (xy 95.25 81.28)
		)
		(stroke
			(width 0)
			(type default)
		)
		(uuid "a6ad8099-0f24-48d7-8fdc-dbf4cd65ea77")
	)
	(wire
		(pts
			(xy 195.58 87.63) (xy 218.44 87.63)
		)
		(stroke
			(width 0)
			(type default)
		)
		(uuid "a728848e-b749-48b6-b6e4-17f79b9e1d95")
	)
	(wire
		(pts
			(xy 172.72 123.19) (xy 172.72 125.73)
		)
		(stroke
			(width 0)
			(type default)
		)
		(uuid "ac5596fe-6a95-4941-9b48-fa2cb2a75a0b")
	)
	(wire
		(pts
			(xy 172.72 133.35) (xy 172.72 135.89)
		)
		(stroke
			(width 0)
			(type default)
		)
		(uuid "b419cb29-2c50-4deb-9a48-81c55ad7a977")
	)
	(wire
		(pts
			(xy 195.58 97.79) (xy 196.85 97.79)
		)
		(stroke
			(width 0)
			(type default)
		)
		(uuid "b81a0ef4-cafa-45b4-89be-f16808a8778d")
	)
	(wire
		(pts
			(xy 77.47 125.73) (xy 77.47 128.27)
		)
		(stroke
			(width 0)
			(type default)
		)
		(uuid "b8ee5ced-6a82-49fe-84aa-b57f59829490")
	)
	(wire
		(pts
			(xy 167.64 135.89) (xy 172.72 135.89)
		)
		(stroke
			(width 0)
			(type default)
		)
		(uuid "c318b714-834c-47bf-a203-c5eedbcc5166")
	)
	(wire
		(pts
			(xy 180.34 125.73) (xy 180.34 135.89)
		)
		(stroke
			(width 0)
			(type default)
		)
		(uuid "c8e7f243-a0e7-4d59-a04c-69e5aac5c139")
	)
	(wire
		(pts
			(xy 223.52 92.71) (xy 223.52 95.25)
		)
		(stroke
			(width 0)
			(type default)
		)
		(uuid "cd5c7ebf-b00f-46a2-8ab6-3c03c39419d3")
	)
	(wire
		(pts
			(xy 77.47 128.27) (xy 77.47 130.81)
		)
		(stroke
			(width 0)
			(type default)
		)
		(uuid "cda59a9d-1cff-45b5-bb4f-7ab3fa332e72")
	)
	(wire
		(pts
			(xy 198.12 96.52) (xy 196.85 95.25)
		)
		(stroke
			(width 0)
			(type default)
		)
		(uuid "e17a2c8f-c6ac-4229-94dc-2719ee00b460")
	)
	(wire
		(pts
			(xy 218.44 113.03) (xy 218.44 125.73)
		)
		(stroke
			(width 0)
			(type default)
		)
		(uuid "e71c48c0-bfa1-45a6-b74d-c5c4cc91c89c")
	)
	(wire
		(pts
			(xy 198.12 96.52) (xy 196.85 97.79)
		)
		(stroke
			(width 0)
			(type default)
		)
		(uuid "e7b584ff-432a-4b20-ba34-60c99a8afd92")
	)
	(wire
		(pts
			(xy 195.58 110.49) (xy 196.85 110.49)
		)
		(stroke
			(width 0)
			(type default)
		)
		(uuid "e89da8e1-ed80-492d-81c4-c82e29960c6e")
	)
	(wire
		(pts
			(xy 195.58 82.55) (xy 204.47 82.55)
		)
		(stroke
			(width 0)
			(type default)
		)
		(uuid "f997c328-569e-4fc6-967d-f8bb536ff310")
	)
	(text "B5819W"
		(exclude_from_sim no)
		(at 205.105 86.36 0)
		(effects
			(font
				(size 1.27 1.27)
			)
			(justify left bottom)
		)
		(uuid "09230731-2b5f-4d53-83b3-bcc078981da8")
	)
	(text "Try 2K4?"
		(exclude_from_sim no)
		(at 212.725 114.935 0)
		(effects
			(font
				(size 1.27 1.27)
			)
			(justify left bottom)
		)
		(uuid "3726e2ad-a951-4ca2-9ca8-3c3804620f48")
	)
	(text "FIXME-1"
		(exclude_from_sim no)
		(at 97.79 90.805 0)
		(effects
			(font
				(size 1.27 1.27)
			)
			(justify left bottom)
		)
		(uuid "52cade40-d65f-4b59-ab19-97ccb726e586")
	)
	(text "Probably doesn't work\nto connect JTAG-RESET\nto the CHIP_EN MCU pin."
		(exclude_from_sim no)
		(at 107.95 95.631 0)
		(effects
			(font
				(size 1.27 1.27)
			)
			(justify left bottom)
		)
		(uuid "7306139f-902f-4ae5-890c-cb772a815620")
	)
	(text "DNP"
		(exclude_from_sim no)
		(at 61.976 100.076 0)
		(effects
			(font
				(size 1.27 1.27)
			)
			(justify left bottom)
		)
		(uuid "7742fb48-542c-4ea7-9797-e0668cb08340")
	)
	(text "https://docs.espressif.com/projects/esp-idf/en/latest/esp32c3/api-guides/jtag-debugging/index.html"
		(exclude_from_sim no)
		(at 177.8 163.83 0)
		(effects
			(font
				(size 1.27 1.27)
			)
			(justify left bottom)
		)
		(uuid "caa5a4f8-297e-476f-b5a9-b8f104800578")
	)
	(text "May need 4,7nF\nand 1M values."
		(exclude_from_sim no)
		(at 162.56 141.605 0)
		(effects
			(font
				(size 1.27 1.27)
			)
			(justify left bottom)
		)
		(uuid "f6b68b9d-08e0-4a7e-b9fa-161970805178")
	)
	(global_label "JTAG_TDI"
		(shape output)
		(at 95.25 105.41 0)
		(fields_autoplaced yes)
		(effects
			(font
				(size 1.27 1.27)
			)
			(justify left)
		)
		(uuid "2acdfd9a-5d6e-45d7-82cf-3b85acbbacff")
		(property "Intersheetrefs" "${INTERSHEET_REFS}"
			(at 105.7669 105.4894 0)
			(effects
				(font
					(size 1.27 1.27)
				)
				(justify left)
				(hide yes)
			)
		)
	)
	(global_label "JTAG_TMS"
		(shape output)
		(at 95.25 100.33 0)
		(fields_autoplaced yes)
		(effects
			(font
				(size 1.27 1.27)
			)
			(justify left)
		)
		(uuid "33257519-feab-487f-8338-4f973530efae")
		(property "Intersheetrefs" "${INTERSHEET_REFS}"
			(at 106.5531 100.4094 0)
			(effects
				(font
					(size 1.27 1.27)
				)
				(justify left)
				(hide yes)
			)
		)
	)
	(global_label "JTAG_TCK"
		(shape output)
		(at 95.25 97.79 0)
		(fields_autoplaced yes)
		(effects
			(font
				(size 1.27 1.27)
			)
			(justify left)
		)
		(uuid "333b436a-028e-40cf-9a7e-beb4dfccaa91")
		(property "Intersheetrefs" "${INTERSHEET_REFS}"
			(at 106.4321 97.8694 0)
			(effects
				(font
					(size 1.27 1.27)
				)
				(justify left)
				(hide yes)
			)
		)
	)
	(global_label "T_NRST"
		(shape output)
		(at 97.79 92.71 0)
		(fields_autoplaced yes)
		(effects
			(font
				(size 1.27 1.27)
			)
			(justify left)
		)
		(uuid "4b82fc75-06c7-45f2-82b8-170e3d711c2c")
		(property "Intersheetrefs" "${INTERSHEET_REFS}"
			(at 106.916 92.6306 0)
			(effects
				(font
					(size 1.27 1.27)
				)
				(justify left)
				(hide yes)
			)
		)
	)
	(global_label "JTAG_TDO"
		(shape input)
		(at 95.25 102.87 0)
		(fields_autoplaced yes)
		(effects
			(font
				(size 1.27 1.27)
			)
			(justify left)
		)
		(uuid "868b98f9-cec5-44b9-a3a1-1d00fe40e892")
		(property "Intersheetrefs" "${INTERSHEET_REFS}"
			(at 106.4926 102.9494 0)
			(effects
				(font
					(size 1.27 1.27)
				)
				(justify left)
				(hide yes)
			)
		)
	)
	(global_label "USB+"
		(shape bidirectional)
		(at 198.12 101.6 0)
		(fields_autoplaced yes)
		(effects
			(font
				(size 1.27 1.27)
			)
			(justify left)
		)
		(uuid "c8ebc7ab-c64a-42e6-b9ef-898b79085c04")
		(property "Intersheetrefs" "${INTERSHEET_REFS}"
			(at 205.9155 101.5206 0)
			(effects
				(font
					(size 1.27 1.27)
				)
				(justify left)
				(hide yes)
			)
		)
	)
	(global_label "USB-"
		(shape bidirectional)
		(at 198.12 96.52 0)
		(fields_autoplaced yes)
		(effects
			(font
				(size 1.27 1.27)
			)
			(justify left)
		)
		(uuid "df9170f0-783a-4692-85ee-e99e61ad056c")
		(property "Intersheetrefs" "${INTERSHEET_REFS}"
			(at 205.9155 96.4406 0)
			(effects
				(font
					(size 1.27 1.27)
				)
				(justify left)
				(hide yes)
			)
		)
	)
	(symbol
		(lib_id "Connector:Conn_ARM_JTAG_SWD_10")
		(at 80.01 100.33 0)
		(unit 1)
		(exclude_from_sim no)
		(in_bom yes)
		(on_board yes)
		(dnp no)
		(fields_autoplaced yes)
		(uuid "0ce88377-4fe0-473a-ba1a-bc5c11b7bacf")
		(property "Reference" "J5"
			(at 68.58 99.0599 0)
			(effects
				(font
					(size 1.27 1.27)
				)
				(justify right)
			)
		)
		(property "Value" "Conn_ARM_JTAG_SWD_10"
			(at 68.58 101.5999 0)
			(effects
				(font
					(size 1.27 1.27)
				)
				(justify right)
			)
		)
		(property "Footprint" "Connector:Tag-Connect_TC2050-IDC-NL_2x05_P1.27mm_Vertical"
			(at 80.01 100.33 0)
			(effects
				(font
					(size 1.27 1.27)
				)
				(hide yes)
			)
		)
		(property "Datasheet" "http://infocenter.arm.com/help/topic/com.arm.doc.ddi0314h/DDI0314H_coresight_components_trm.pdf"
			(at 71.12 132.08 90)
			(effects
				(font
					(size 1.27 1.27)
				)
				(hide yes)
			)
		)
		(property "Description" ""
			(at 80.01 100.33 0)
			(effects
				(font
					(size 1.27 1.27)
				)
				(hide yes)
			)
		)
		(pin "1"
			(uuid "94d758c6-04f5-4424-9cea-708c36f0a40d")
		)
		(pin "10"
			(uuid "2db07a33-2e94-442f-a640-3c635d859679")
		)
		(pin "2"
			(uuid "2007dfd6-0819-4eb9-babb-2379dddb25ef")
		)
		(pin "3"
			(uuid "22d401b9-036a-4e57-b0eb-3641ffb44a2e")
		)
		(pin "4"
			(uuid "20361c5c-50f2-4adc-a798-1d819856f22d")
		)
		(pin "5"
			(uuid "ffe55abe-b133-4aa6-8174-5f5731f57bce")
		)
		(pin "6"
			(uuid "ccf164ca-5f45-4774-b5bb-616c719f91c6")
		)
		(pin "7"
			(uuid "1661320c-ffc2-47d0-a573-3ff6c51b31cb")
		)
		(pin "8"
			(uuid "e85b277c-8a52-42f3-ba94-2b50ced78d90")
		)
		(pin "9"
			(uuid "91db70e1-e8ef-4ff2-a532-e1f2f5afc19d")
		)
		(instances
			(project "hipbadge"
				(path "/e63e39d7-6ac0-4ffd-8aa3-1841a4541b55/b5dbda8e-b91f-4df5-97b8-c00c7d77d0b4"
					(reference "J5")
					(unit 1)
				)
			)
		)
	)
	(symbol
		(lib_id "Device:C")
		(at 167.64 129.54 0)
		(mirror x)
		(unit 1)
		(exclude_from_sim no)
		(in_bom yes)
		(on_board yes)
		(dnp no)
		(fields_autoplaced yes)
		(uuid "106db72a-cf20-41ce-b171-2fe09897a64c")
		(property "Reference" "C47"
			(at 163.83 128.27 0)
			(effects
				(font
					(size 1.27 1.27)
				)
				(justify right)
			)
		)
		(property "Value" "0.1uF"
			(at 163.83 130.81 0)
			(effects
				(font
					(size 1.27 1.27)
				)
				(justify right)
			)
		)
		(property "Footprint" "Capacitor_SMD:C_0805_2012Metric"
			(at 168.6052 125.73 0)
			(effects
				(font
					(size 1.27 1.27)
				)
				(hide yes)
			)
		)
		(property "Datasheet" "~"
			(at 167.64 129.54 0)
			(effects
				(font
					(size 1.27 1.27)
				)
				(hide yes)
			)
		)
		(property "Description" ""
			(at 167.64 129.54 0)
			(effects
				(font
					(size 1.27 1.27)
				)
				(hide yes)
			)
		)
		(pin "1"
			(uuid "190cb2ea-3f77-4fa4-bf09-70f6607989b5")
		)
		(pin "2"
			(uuid "35803692-fcfb-4e9a-9504-d45111ceb0c0")
		)
		(instances
			(project "hipbadge"
				(path "/e63e39d7-6ac0-4ffd-8aa3-1841a4541b55/b5dbda8e-b91f-4df5-97b8-c00c7d77d0b4"
					(reference "C47")
					(unit 1)
				)
			)
		)
	)
	(symbol
		(lib_id "Device:C")
		(at 223.52 88.9 0)
		(unit 1)
		(exclude_from_sim no)
		(in_bom yes)
		(on_board yes)
		(dnp no)
		(fields_autoplaced yes)
		(uuid "49ad618e-b732-4ed8-9947-ed681a220c60")
		(property "Reference" "C48"
			(at 227.33 87.6299 0)
			(effects
				(font
					(size 1.27 1.27)
				)
				(justify left)
			)
		)
		(property "Value" "22uF"
			(at 227.33 90.1699 0)
			(effects
				(font
					(size 1.27 1.27)
				)
				(justify left)
			)
		)
		(property "Footprint" "Capacitor_SMD:C_0805_2012Metric"
			(at 224.4852 92.71 0)
			(effects
				(font
					(size 1.27 1.27)
				)
				(hide yes)
			)
		)
		(property "Datasheet" "~"
			(at 223.52 88.9 0)
			(effects
				(font
					(size 1.27 1.27)
				)
				(hide yes)
			)
		)
		(property "Description" ""
			(at 223.52 88.9 0)
			(effects
				(font
					(size 1.27 1.27)
				)
				(hide yes)
			)
		)
		(pin "1"
			(uuid "d0c08482-c55a-4954-9b2b-eb195088ded0")
		)
		(pin "2"
			(uuid "c8cd18f0-5c72-488b-a780-21ce4713f54d")
		)
		(instances
			(project "hipbadge"
				(path "/e63e39d7-6ac0-4ffd-8aa3-1841a4541b55/b5dbda8e-b91f-4df5-97b8-c00c7d77d0b4"
					(reference "C48")
					(unit 1)
				)
			)
		)
	)
	(symbol
		(lib_id "power:GND")
		(at 180.34 138.43 0)
		(unit 1)
		(exclude_from_sim no)
		(in_bom yes)
		(on_board yes)
		(dnp no)
		(fields_autoplaced yes)
		(uuid "70d5d3b2-733d-41a7-8da1-b76bb9a66009")
		(property "Reference" "#PWR068"
			(at 180.34 144.78 0)
			(effects
				(font
					(size 1.27 1.27)
				)
				(hide yes)
			)
		)
		(property "Value" "GND"
			(at 180.34 143.51 0)
			(effects
				(font
					(size 1.27 1.27)
				)
			)
		)
		(property "Footprint" ""
			(at 180.34 138.43 0)
			(effects
				(font
					(size 1.27 1.27)
				)
				(hide yes)
			)
		)
		(property "Datasheet" ""
			(at 180.34 138.43 0)
			(effects
				(font
					(size 1.27 1.27)
				)
				(hide yes)
			)
		)
		(property "Description" ""
			(at 180.34 138.43 0)
			(effects
				(font
					(size 1.27 1.27)
				)
				(hide yes)
			)
		)
		(pin "1"
			(uuid "3a3f9e67-7e80-4c57-922a-6ebc231c2694")
		)
		(instances
			(project "hipbadge"
				(path "/e63e39d7-6ac0-4ffd-8aa3-1841a4541b55/b5dbda8e-b91f-4df5-97b8-c00c7d77d0b4"
					(reference "#PWR068")
					(unit 1)
				)
			)
		)
	)
	(symbol
		(lib_id "Device:D_Schottky")
		(at 208.28 82.55 180)
		(unit 1)
		(exclude_from_sim no)
		(in_bom yes)
		(on_board yes)
		(dnp no)
		(fields_autoplaced yes)
		(uuid "73b33d7d-c43b-41c1-a577-52cee3e38c9b")
		(property "Reference" "D24"
			(at 208.5975 76.2 0)
			(effects
				(font
					(size 1.27 1.27)
				)
			)
		)
		(property "Value" "D_Schottky"
			(at 208.5975 78.74 0)
			(effects
				(font
					(size 1.27 1.27)
				)
			)
		)
		(property "Footprint" "Diode_SMD:D_SOD-123"
			(at 208.28 82.55 0)
			(effects
				(font
					(size 1.27 1.27)
				)
				(hide yes)
			)
		)
		(property "Datasheet" "~"
			(at 208.28 82.55 0)
			(effects
				(font
					(size 1.27 1.27)
				)
				(hide yes)
			)
		)
		(property "Description" ""
			(at 208.28 82.55 0)
			(effects
				(font
					(size 1.27 1.27)
				)
				(hide yes)
			)
		)
		(pin "1"
			(uuid "f96bb65b-cc0b-4789-8853-629cf5e08cd8")
		)
		(pin "2"
			(uuid "f81da1dd-7871-4dd5-8231-663168f8a024")
		)
		(instances
			(project "hipbadge"
				(path "/e63e39d7-6ac0-4ffd-8aa3-1841a4541b55/b5dbda8e-b91f-4df5-97b8-c00c7d77d0b4"
					(reference "D24")
					(unit 1)
				)
			)
		)
	)
	(symbol
		(lib_id "Device:R")
		(at 215.9 109.22 0)
		(mirror x)
		(unit 1)
		(exclude_from_sim no)
		(in_bom yes)
		(on_board yes)
		(dnp no)
		(fields_autoplaced yes)
		(uuid "885476f3-6bb7-46e6-97c2-6807afd92b55")
		(property "Reference" "R24"
			(at 213.36 107.9499 0)
			(effects
				(font
					(size 1.27 1.27)
				)
				(justify right)
			)
		)
		(property "Value" "5K1"
			(at 213.36 110.4899 0)
			(effects
				(font
					(size 1.27 1.27)
				)
				(justify right)
			)
		)
		(property "Footprint" "Resistor_SMD:R_0805_2012Metric"
			(at 214.122 109.22 90)
			(effects
				(font
					(size 1.27 1.27)
				)
				(hide yes)
			)
		)
		(property "Datasheet" "~"
			(at 215.9 109.22 0)
			(effects
				(font
					(size 1.27 1.27)
				)
				(hide yes)
			)
		)
		(property "Description" ""
			(at 215.9 109.22 0)
			(effects
				(font
					(size 1.27 1.27)
				)
				(hide yes)
			)
		)
		(pin "1"
			(uuid "253525f1-1eee-495d-a64a-883d6e0b92b7")
		)
		(pin "2"
			(uuid "df9cc216-2708-49e1-b629-a2f415a2348b")
		)
		(instances
			(project "hipbadge"
				(path "/e63e39d7-6ac0-4ffd-8aa3-1841a4541b55/b5dbda8e-b91f-4df5-97b8-c00c7d77d0b4"
					(reference "R24")
					(unit 1)
				)
			)
		)
	)
	(symbol
		(lib_id "power:GND")
		(at 77.47 130.81 0)
		(unit 1)
		(exclude_from_sim no)
		(in_bom yes)
		(on_board yes)
		(dnp no)
		(fields_autoplaced yes)
		(uuid "9470bcbf-1447-480c-9f76-f28448c47158")
		(property "Reference" "#PWR066"
			(at 77.47 137.16 0)
			(effects
				(font
					(size 1.27 1.27)
				)
				(hide yes)
			)
		)
		(property "Value" "GND"
			(at 77.47 135.89 0)
			(effects
				(font
					(size 1.27 1.27)
				)
			)
		)
		(property "Footprint" ""
			(at 77.47 130.81 0)
			(effects
				(font
					(size 1.27 1.27)
				)
				(hide yes)
			)
		)
		(property "Datasheet" ""
			(at 77.47 130.81 0)
			(effects
				(font
					(size 1.27 1.27)
				)
				(hide yes)
			)
		)
		(property "Description" ""
			(at 77.47 130.81 0)
			(effects
				(font
					(size 1.27 1.27)
				)
				(hide yes)
			)
		)
		(pin "1"
			(uuid "06e38dfa-0a6c-43f5-a6cd-c5e6679abb73")
		)
		(instances
			(project "hipbadge"
				(path "/e63e39d7-6ac0-4ffd-8aa3-1841a4541b55/b5dbda8e-b91f-4df5-97b8-c00c7d77d0b4"
					(reference "#PWR066")
					(unit 1)
				)
			)
		)
	)
	(symbol
		(lib_id "power:+5V")
		(at 223.52 80.01 0)
		(unit 1)
		(exclude_from_sim no)
		(in_bom yes)
		(on_board yes)
		(dnp no)
		(fields_autoplaced yes)
		(uuid "9f687339-c362-4907-8af0-a4163cae889e")
		(property "Reference" "#PWR069"
			(at 223.52 83.82 0)
			(effects
				(font
					(size 1.27 1.27)
				)
				(hide yes)
			)
		)
		(property "Value" "+5V"
			(at 223.52 74.295 0)
			(effects
				(font
					(size 1.27 1.27)
				)
			)
		)
		(property "Footprint" ""
			(at 223.52 80.01 0)
			(effects
				(font
					(size 1.27 1.27)
				)
				(hide yes)
			)
		)
		(property "Datasheet" ""
			(at 223.52 80.01 0)
			(effects
				(font
					(size 1.27 1.27)
				)
				(hide yes)
			)
		)
		(property "Description" ""
			(at 223.52 80.01 0)
			(effects
				(font
					(size 1.27 1.27)
				)
				(hide yes)
			)
		)
		(pin "1"
			(uuid "4861675c-a07e-4109-b305-f788c58d6dd0")
		)
		(instances
			(project "hipbadge"
				(path "/e63e39d7-6ac0-4ffd-8aa3-1841a4541b55/b5dbda8e-b91f-4df5-97b8-c00c7d77d0b4"
					(reference "#PWR069")
					(unit 1)
				)
			)
		)
	)
	(symbol
		(lib_id "Device:R")
		(at 172.72 129.54 0)
		(unit 1)
		(exclude_from_sim no)
		(in_bom yes)
		(on_board yes)
		(dnp no)
		(fields_autoplaced yes)
		(uuid "a2f010b5-e139-4503-bcba-9ba025e7f98d")
		(property "Reference" "R23"
			(at 175.26 128.2699 0)
			(effects
				(font
					(size 1.27 1.27)
				)
				(justify left)
			)
		)
		(property "Value" "330"
			(at 175.26 130.8099 0)
			(effects
				(font
					(size 1.27 1.27)
				)
				(justify left)
			)
		)
		(property "Footprint" "Resistor_SMD:R_0805_2012Metric"
			(at 170.942 129.54 90)
			(effects
				(font
					(size 1.27 1.27)
				)
				(hide yes)
			)
		)
		(property "Datasheet" "~"
			(at 172.72 129.54 0)
			(effects
				(font
					(size 1.27 1.27)
				)
				(hide yes)
			)
		)
		(property "Description" ""
			(at 172.72 129.54 0)
			(effects
				(font
					(size 1.27 1.27)
				)
				(hide yes)
			)
		)
		(pin "1"
			(uuid "363bd0c1-170a-4185-bf34-c19babd5687c")
		)
		(pin "2"
			(uuid "f6e7fa9c-ca5b-4428-9408-d867c0cf0856")
		)
		(instances
			(project "hipbadge"
				(path "/e63e39d7-6ac0-4ffd-8aa3-1841a4541b55/b5dbda8e-b91f-4df5-97b8-c00c7d77d0b4"
					(reference "R23")
					(unit 1)
				)
			)
		)
	)
	(symbol
		(lib_id "power:GND")
		(at 223.52 95.25 0)
		(unit 1)
		(exclude_from_sim no)
		(in_bom yes)
		(on_board yes)
		(dnp no)
		(fields_autoplaced yes)
		(uuid "c02c2e6f-5f64-4e7d-9784-2a81d008a652")
		(property "Reference" "#PWR070"
			(at 223.52 101.6 0)
			(effects
				(font
					(size 1.27 1.27)
				)
				(hide yes)
			)
		)
		(property "Value" "GND"
			(at 223.52 100.33 0)
			(effects
				(font
					(size 1.27 1.27)
				)
			)
		)
		(property "Footprint" ""
			(at 223.52 95.25 0)
			(effects
				(font
					(size 1.27 1.27)
				)
				(hide yes)
			)
		)
		(property "Datasheet" ""
			(at 223.52 95.25 0)
			(effects
				(font
					(size 1.27 1.27)
				)
				(hide yes)
			)
		)
		(property "Description" ""
			(at 223.52 95.25 0)
			(effects
				(font
					(size 1.27 1.27)
				)
				(hide yes)
			)
		)
		(pin "1"
			(uuid "f7a426a1-f9fc-4a2f-aa16-90f66b4676fd")
		)
		(instances
			(project "hipbadge"
				(path "/e63e39d7-6ac0-4ffd-8aa3-1841a4541b55/b5dbda8e-b91f-4df5-97b8-c00c7d77d0b4"
					(reference "#PWR070")
					(unit 1)
				)
			)
		)
	)
	(symbol
		(lib_id "Device:R")
		(at 218.44 109.22 0)
		(unit 1)
		(exclude_from_sim no)
		(in_bom yes)
		(on_board yes)
		(dnp no)
		(fields_autoplaced yes)
		(uuid "c61046fa-7786-4e60-b0ff-640d7ab2aa1c")
		(property "Reference" "R25"
			(at 220.98 107.9499 0)
			(effects
				(font
					(size 1.27 1.27)
				)
				(justify left)
			)
		)
		(property "Value" "5K1"
			(at 220.98 110.4899 0)
			(effects
				(font
					(size 1.27 1.27)
				)
				(justify left)
			)
		)
		(property "Footprint" "Resistor_SMD:R_0805_2012Metric"
			(at 216.662 109.22 90)
			(effects
				(font
					(size 1.27 1.27)
				)
				(hide yes)
			)
		)
		(property "Datasheet" "~"
			(at 218.44 109.22 0)
			(effects
				(font
					(size 1.27 1.27)
				)
				(hide yes)
			)
		)
		(property "Description" ""
			(at 218.44 109.22 0)
			(effects
				(font
					(size 1.27 1.27)
				)
				(hide yes)
			)
		)
		(pin "1"
			(uuid "17844453-c80f-43e0-bcfe-c0a35b3407ea")
		)
		(pin "2"
			(uuid "a063a441-6729-472a-a467-ccf3b3ab1963")
		)
		(instances
			(project "hipbadge"
				(path "/e63e39d7-6ac0-4ffd-8aa3-1841a4541b55/b5dbda8e-b91f-4df5-97b8-c00c7d77d0b4"
					(reference "R25")
					(unit 1)
				)
			)
		)
	)
	(symbol
		(lib_id "Connector:USB_C_Receptacle_USB2.0")
		(at 180.34 97.79 0)
		(unit 1)
		(exclude_from_sim no)
		(in_bom yes)
		(on_board yes)
		(dnp no)
		(fields_autoplaced yes)
		(uuid "cb015470-c4f9-48ea-9334-8aa6ea234423")
		(property "Reference" "J6"
			(at 180.34 74.93 0)
			(effects
				(font
					(size 1.27 1.27)
				)
			)
		)
		(property "Value" "USB_C_Receptacle_USB2.0"
			(at 180.34 77.47 0)
			(effects
				(font
					(size 1.27 1.27)
				)
			)
		)
		(property "Footprint" "Connector_USB:USB_C_Receptacle_HRO_TYPE-C-31-M-12"
			(at 184.15 97.79 0)
			(effects
				(font
					(size 1.27 1.27)
				)
				(hide yes)
			)
		)
		(property "Datasheet" "https://www.usb.org/sites/default/files/documents/usb_type-c.zip"
			(at 184.15 97.79 0)
			(effects
				(font
					(size 1.27 1.27)
				)
				(hide yes)
			)
		)
		(property "Description" ""
			(at 180.34 97.79 0)
			(effects
				(font
					(size 1.27 1.27)
				)
				(hide yes)
			)
		)
		(pin "A1"
			(uuid "b0ae79af-c3ac-47a9-ad25-241c2f330cc3")
		)
		(pin "A12"
			(uuid "8b48c889-0c86-4b76-ac09-9977e107770b")
		)
		(pin "A4"
			(uuid "590d2246-0335-448e-8d54-2b75a84141dc")
		)
		(pin "A5"
			(uuid "d74fe499-5a32-411e-a80a-2993bba7eb7e")
		)
		(pin "A6"
			(uuid "eebeea00-07bd-4114-90d1-dba7a5241e97")
		)
		(pin "A7"
			(uuid "9ad0fb35-dce5-4dc6-b185-eec7939ba565")
		)
		(pin "A8"
			(uuid "4675f025-5e9c-4887-af9d-b373460fd0e3")
		)
		(pin "A9"
			(uuid "2d9ccee2-a782-45f2-b010-f2358899dc17")
		)
		(pin "B1"
			(uuid "883b7534-fd9e-479c-99bf-0ffbed3ffbcd")
		)
		(pin "B12"
			(uuid "23b0fca2-2c87-4c64-a1cf-5ce99fab42c3")
		)
		(pin "B4"
			(uuid "45421db8-abaf-447d-8b6b-8da223bd2c48")
		)
		(pin "B5"
			(uuid "d215371b-a828-44cb-af80-7bb4ec348d72")
		)
		(pin "B6"
			(uuid "ee6d98d6-8a53-4bb3-b7b5-46a1f551ba46")
		)
		(pin "B7"
			(uuid "41d243bc-d8a4-4cb3-bc24-46c90330374e")
		)
		(pin "B8"
			(uuid "7be27f6b-4703-4b4c-9837-cee876e3eda8")
		)
		(pin "B9"
			(uuid "c5387932-46db-4fa2-bbb5-cd8edffe1a67")
		)
		(pin "S1"
			(uuid "aad76b86-9433-47eb-b68b-e8284bb1b70b")
		)
		(instances
			(project "hipbadge"
				(path "/e63e39d7-6ac0-4ffd-8aa3-1841a4541b55/b5dbda8e-b91f-4df5-97b8-c00c7d77d0b4"
					(reference "J6")
					(unit 1)
				)
			)
		)
	)
	(symbol
		(lib_id "Device:R")
		(at 77.47 121.92 0)
		(mirror x)
		(unit 1)
		(exclude_from_sim no)
		(in_bom yes)
		(on_board yes)
		(dnp no)
		(fields_autoplaced yes)
		(uuid "d5c7c2cc-3769-46c4-8c2c-ab63aade9930")
		(property "Reference" "R21"
			(at 74.93 120.6499 0)
			(effects
				(font
					(size 1.27 1.27)
				)
				(justify right)
			)
		)
		(property "Value" "100"
			(at 74.93 123.1899 0)
			(effects
				(font
					(size 1.27 1.27)
				)
				(justify right)
			)
		)
		(property "Footprint" "Resistor_SMD:R_0805_2012Metric"
			(at 75.692 121.92 90)
			(effects
				(font
					(size 1.27 1.27)
				)
				(hide yes)
			)
		)
		(property "Datasheet" "~"
			(at 77.47 121.92 0)
			(effects
				(font
					(size 1.27 1.27)
				)
				(hide yes)
			)
		)
		(property "Description" ""
			(at 77.47 121.92 0)
			(effects
				(font
					(size 1.27 1.27)
				)
				(hide yes)
			)
		)
		(pin "1"
			(uuid "71d7ec03-4ac3-4591-8fb2-cdb4ee78f69d")
		)
		(pin "2"
			(uuid "3692511c-fc74-4017-828f-51e8a6d08521")
		)
		(instances
			(project "hipbadge"
				(path "/e63e39d7-6ac0-4ffd-8aa3-1841a4541b55/b5dbda8e-b91f-4df5-97b8-c00c7d77d0b4"
					(reference "R21")
					(unit 1)
				)
			)
		)
	)
	(symbol
		(lib_id "power:+3V3")
		(at 80.01 78.74 0)
		(unit 1)
		(exclude_from_sim no)
		(in_bom yes)
		(on_board yes)
		(dnp no)
		(fields_autoplaced yes)
		(uuid "d5f1024a-22db-42c2-a593-83471cdc2de2")
		(property "Reference" "#PWR067"
			(at 80.01 82.55 0)
			(effects
				(font
					(size 1.27 1.27)
				)
				(hide yes)
			)
		)
		(property "Value" "+3V3"
			(at 80.01 73.66 0)
			(effects
				(font
					(size 1.27 1.27)
				)
			)
		)
		(property "Footprint" ""
			(at 80.01 78.74 0)
			(effects
				(font
					(size 1.27 1.27)
				)
				(hide yes)
			)
		)
		(property "Datasheet" ""
			(at 80.01 78.74 0)
			(effects
				(font
					(size 1.27 1.27)
				)
				(hide yes)
			)
		)
		(property "Description" ""
			(at 80.01 78.74 0)
			(effects
				(font
					(size 1.27 1.27)
				)
				(hide yes)
			)
		)
		(pin "1"
			(uuid "40fa373e-c5ba-4bd0-9829-1b2b5bf4c831")
		)
		(instances
			(project "hipbadge"
				(path "/e63e39d7-6ac0-4ffd-8aa3-1841a4541b55/b5dbda8e-b91f-4df5-97b8-c00c7d77d0b4"
					(reference "#PWR067")
					(unit 1)
				)
			)
		)
	)
	(symbol
		(lib_id "Device:R")
		(at 95.25 86.36 0)
		(unit 1)
		(exclude_from_sim no)
		(in_bom yes)
		(on_board yes)
		(dnp no)
		(fields_autoplaced yes)
		(uuid "ed46d34f-dbf7-4184-a2a3-9342b6c97f04")
		(property "Reference" "R22"
			(at 97.79 85.0899 0)
			(effects
				(font
					(size 1.27 1.27)
				)
				(justify left)
			)
		)
		(property "Value" "100K"
			(at 97.79 87.6299 0)
			(effects
				(font
					(size 1.27 1.27)
				)
				(justify left)
			)
		)
		(property "Footprint" "Resistor_SMD:R_0805_2012Metric"
			(at 93.472 86.36 90)
			(effects
				(font
					(size 1.27 1.27)
				)
				(hide yes)
			)
		)
		(property "Datasheet" "~"
			(at 95.25 86.36 0)
			(effects
				(font
					(size 1.27 1.27)
				)
				(hide yes)
			)
		)
		(property "Description" ""
			(at 95.25 86.36 0)
			(effects
				(font
					(size 1.27 1.27)
				)
				(hide yes)
			)
		)
		(pin "1"
			(uuid "dc48ae14-20f0-4d8a-a212-c55c7749e3f6")
		)
		(pin "2"
			(uuid "973e8866-556b-4b4f-bb8e-e273640a2b4b")
		)
		(instances
			(project "hipbadge"
				(path "/e63e39d7-6ac0-4ffd-8aa3-1841a4541b55/b5dbda8e-b91f-4df5-97b8-c00c7d77d0b4"
					(reference "R22")
					(unit 1)
				)
			)
		)
	)
)
